^D:\ONEDRIVE\STUDIA\PROJEKTOWANIE WARSTWY WIZUALNEJ GRY\SZABLON\OPENGL_PROJECT_5_02\OPENGL_PROJECT_5_01\DEBUG\ASSIMPMODEL.OBJ|D:\ONEDRIVE\STUDIA\PROJEKTOWANIE WARSTWY WIZUALNEJ GRY\SZABLON\OPENGL_PROJECT_5_02\OPENGL_PROJECT_5_01\DEBUG\CAMERA.OBJ|D:\ONEDRIVE\STUDIA\PROJEKTOWANIE WARSTWY WIZUALNEJ GRY\SZABLON\OPENGL_PROJECT_5_02\OPENGL_PROJECT_5_01\DEBUG\EVENT.OBJ|D:\ONEDRIVE\STUDIA\PROJEKTOWANIE WARSTWY WIZUALNEJ GRY\SZABLON\OPENGL_PROJECT_5_02\OPENGL_PROJECT_5_01\DEBUG\GL3W.OBJ|D:\ONEDRIVE\STUDIA\PROJEKTOWANIE WARSTWY WIZUALNEJ GRY\SZABLON\OPENGL_PROJECT_5_02\OPENGL_PROJECT_5_01\DEBUG\MAIN.OBJ|D:\ONEDRIVE\STUDIA\PROJEKTOWANIE WARSTWY WIZUALNEJ GRY\SZABLON\OPENGL_PROJECT_5_02\OPENGL_PROJECT_5_01\DEBUG\MATERIALS.OBJ|D:\ONEDRIVE\STUDIA\PROJEKTOWANIE WARSTWY WIZUALNEJ GRY\SZABLON\OPENGL_PROJECT_5_02\OPENGL_PROJECT_5_01\DEBUG\MESH.OBJ|D:\ONEDRIVE\STUDIA\PROJEKTOWANIE WARSTWY WIZUALNEJ GRY\SZABLON\OPENGL_PROJECT_5_02\OPENGL_PROJECT_5_01\DEBUG\SHADER.OBJ|D:\ONEDRIVE\STUDIA\PROJEKTOWANIE WARSTWY WIZUALNEJ GRY\SZABLON\OPENGL_PROJECT_5_02\OPENGL_PROJECT_5_01\DEBUG\STDAFX.OBJ
C:\PROGRAM FILES (X86)\WINDOWS KITS\8.1\LIB\WINV6.3\UM\X86\OPENGL32.LIB
D:\DEVELOPMENT\GLFW-3.1.2.BIN.WIN32\GLFW-3.1.2.BIN.WIN32\LIB-VC2013\GLFW3.LIB
D:\ONEDRIVE\STUDIA\PROJEKTOWANIE WARSTWY WIZUALNEJ GRY\SZABLON\OPENGL_PROJECT_5_02\OPENGL_PROJECT_5_01\LIB\ASSIMP-VC120-MTD.LIB
D:\ONEDRIVE\STUDIA\PROJEKTOWANIE WARSTWY WIZUALNEJ GRY\SZABLON\OPENGL_PROJECT_5_02\OPENGL_PROJECT_5_01\LIB\SOIL.LIB
C:\PROGRAM FILES (X86)\WINDOWS KITS\8.1\LIB\WINV6.3\UM\X86\KERNEL32.LIB
C:\PROGRAM FILES (X86)\WINDOWS KITS\8.1\LIB\WINV6.3\UM\X86\USER32.LIB
C:\PROGRAM FILES (X86)\WINDOWS KITS\8.1\LIB\WINV6.3\UM\X86\GDI32.LIB
C:\PROGRAM FILES (X86)\WINDOWS KITS\8.1\LIB\WINV6.3\UM\X86\WINSPOOL.LIB
C:\PROGRAM FILES (X86)\WINDOWS KITS\8.1\LIB\WINV6.3\UM\X86\COMDLG32.LIB
C:\PROGRAM FILES (X86)\WINDOWS KITS\8.1\LIB\WINV6.3\UM\X86\ADVAPI32.LIB
C:\PROGRAM FILES (X86)\WINDOWS KITS\8.1\LIB\WINV6.3\UM\X86\SHELL32.LIB
C:\PROGRAM FILES (X86)\WINDOWS KITS\8.1\LIB\WINV6.3\UM\X86\OLE32.LIB
C:\PROGRAM FILES (X86)\WINDOWS KITS\8.1\LIB\WINV6.3\UM\X86\OLEAUT32.LIB
C:\PROGRAM FILES (X86)\WINDOWS KITS\8.1\LIB\WINV6.3\UM\X86\UUID.LIB
C:\PROGRAM FILES (X86)\WINDOWS KITS\8.1\LIB\WINV6.3\UM\X86\ODBC32.LIB
C:\PROGRAM FILES (X86)\WINDOWS KITS\8.1\LIB\WINV6.3\UM\X86\ODBCCP32.LIB
D:\ONEDRIVE\STUDIA\PROJEKTOWANIE WARSTWY WIZUALNEJ GRY\SZABLON\OPENGL_PROJECT_5_02\OPENGL_PROJECT_5_01\DEBUG\ASSIMPMODEL.OBJ
D:\ONEDRIVE\STUDIA\PROJEKTOWANIE WARSTWY WIZUALNEJ GRY\SZABLON\OPENGL_PROJECT_5_02\OPENGL_PROJECT_5_01\DEBUG\CAMERA.OBJ
D:\ONEDRIVE\STUDIA\PROJEKTOWANIE WARSTWY WIZUALNEJ GRY\SZABLON\OPENGL_PROJECT_5_02\OPENGL_PROJECT_5_01\DEBUG\EVENT.OBJ
D:\ONEDRIVE\STUDIA\PROJEKTOWANIE WARSTWY WIZUALNEJ GRY\SZABLON\OPENGL_PROJECT_5_02\OPENGL_PROJECT_5_01\DEBUG\GL3W.OBJ
D:\ONEDRIVE\STUDIA\PROJEKTOWANIE WARSTWY WIZUALNEJ GRY\SZABLON\OPENGL_PROJECT_5_02\OPENGL_PROJECT_5_01\DEBUG\MAIN.OBJ
D:\ONEDRIVE\STUDIA\PROJEKTOWANIE WARSTWY WIZUALNEJ GRY\SZABLON\OPENGL_PROJECT_5_02\OPENGL_PROJECT_5_01\DEBUG\MATERIALS.OBJ
D:\ONEDRIVE\STUDIA\PROJEKTOWANIE WARSTWY WIZUALNEJ GRY\SZABLON\OPENGL_PROJECT_5_02\OPENGL_PROJECT_5_01\DEBUG\MESH.OBJ
D:\ONEDRIVE\STUDIA\PROJEKTOWANIE WARSTWY WIZUALNEJ GRY\SZABLON\OPENGL_PROJECT_5_02\OPENGL_PROJECT_5_01\DEBUG\SHADER.OBJ
D:\ONEDRIVE\STUDIA\PROJEKTOWANIE WARSTWY WIZUALNEJ GRY\SZABLON\OPENGL_PROJECT_5_02\OPENGL_PROJECT_5_01\DEBUG\STDAFX.OBJ
C:\WINDOWS\GLOBALIZATION\SORTING\SORTDEFAULT.NLS
C:\PROGRAM FILES (X86)\MICROSOFT VISUAL STUDIO\2013\12.0\VC\BIN\C2.DLL
C:\PROGRAM FILES (X86)\MICROSOFT VISUAL STUDIO\2013\12.0\VC\BIN\1033\LINKUI.DLL
C:\PROGRAM FILES (X86)\MICROSOFT VISUAL STUDIO\2013\12.0\VC\BIN\LINK.EXE
C:\WINDOWS\SYSTEM32\RSAENH.DLL
C:\WINDOWS\SYSTEM32\TZRES.DLL
C:\PROGRAM FILES (X86)\MICROSOFT VISUAL STUDIO\2013\12.0\VC\LIB\MSVCPRTD.LIB
C:\PROGRAM FILES (X86)\MICROSOFT VISUAL STUDIO\2013\12.0\VC\LIB\MSVCRTD.LIB
C:\PROGRAM FILES (X86)\MICROSOFT VISUAL STUDIO\2013\12.0\VC\LIB\OLDNAMES.LIB
C:\PROGRAM FILES (X86)\MICROSOFT VISUAL STUDIO\2013\12.0\VC\LIB\MSVCRT.LIB
C:\PROGRAM FILES (X86)\WINDOWS KITS\8.1\BIN\X86\RC.EXE
C:\PROGRAM FILES (X86)\MICROSOFT VISUAL STUDIO\2013\12.0\VC\BIN\CVTRES.EXE
^D:\ONEDRIVE\STUDIA\PROJEKTOWANIE WARSTWY WIZUALNEJ GRY\ZADANIA\ZESTAW 4\ZADANIE 2\OPENGL_PROJECT_5_01\DEBUG\ASSIMPMODEL.OBJ|D:\ONEDRIVE\STUDIA\PROJEKTOWANIE WARSTWY WIZUALNEJ GRY\ZADANIA\ZESTAW 4\ZADANIE 2\OPENGL_PROJECT_5_01\DEBUG\CAMERA.OBJ|D:\ONEDRIVE\STUDIA\PROJEKTOWANIE WARSTWY WIZUALNEJ GRY\ZADANIA\ZESTAW 4\ZADANIE 2\OPENGL_PROJECT_5_01\DEBUG\EVENT.OBJ|D:\ONEDRIVE\STUDIA\PROJEKTOWANIE WARSTWY WIZUALNEJ GRY\ZADANIA\ZESTAW 4\ZADANIE 2\OPENGL_PROJECT_5_01\DEBUG\GL3W.OBJ|D:\ONEDRIVE\STUDIA\PROJEKTOWANIE WARSTWY WIZUALNEJ GRY\ZADANIA\ZESTAW 4\ZADANIE 2\OPENGL_PROJECT_5_01\DEBUG\MAIN.OBJ|D:\ONEDRIVE\STUDIA\PROJEKTOWANIE WARSTWY WIZUALNEJ GRY\ZADANIA\ZESTAW 4\ZADANIE 2\OPENGL_PROJECT_5_01\DEBUG\MATERIALS.OBJ|D:\ONEDRIVE\STUDIA\PROJEKTOWANIE WARSTWY WIZUALNEJ GRY\ZADANIA\ZESTAW 4\ZADANIE 2\OPENGL_PROJECT_5_01\DEBUG\MESH.OBJ|D:\ONEDRIVE\STUDIA\PROJEKTOWANIE WARSTWY WIZUALNEJ GRY\ZADANIA\ZESTAW 4\ZADANIE 2\OPENGL_PROJECT_5_01\DEBUG\SHADER.OBJ|D:\ONEDRIVE\STUDIA\PROJEKTOWANIE WARSTWY WIZUALNEJ GRY\ZADANIA\ZESTAW 4\ZADANIE 2\OPENGL_PROJECT_5_01\DEBUG\STDAFX.OBJ
C:\PROGRAM FILES (X86)\WINDOWS KITS\8.1\LIB\WINV6.3\UM\X86\OPENGL32.LIB
D:\DEVELOPMENT\GLFW-3.1.2.BIN.WIN32\GLFW-3.1.2.BIN.WIN32\LIB-VC2013\GLFW3.LIB
D:\ONEDRIVE\STUDIA\PROJEKTOWANIE WARSTWY WIZUALNEJ GRY\ZADANIA\ZESTAW 4\ZADANIE 2\OPENGL_PROJECT_5_01\LIB\ASSIMP-VC120-MTD.LIB
D:\ONEDRIVE\STUDIA\PROJEKTOWANIE WARSTWY WIZUALNEJ GRY\ZADANIA\ZESTAW 4\ZADANIE 2\OPENGL_PROJECT_5_01\LIB\SOIL.LIB
C:\PROGRAM FILES (X86)\WINDOWS KITS\8.1\LIB\WINV6.3\UM\X86\KERNEL32.LIB
C:\PROGRAM FILES (X86)\WINDOWS KITS\8.1\LIB\WINV6.3\UM\X86\USER32.LIB
C:\PROGRAM FILES (X86)\WINDOWS KITS\8.1\LIB\WINV6.3\UM\X86\GDI32.LIB
C:\PROGRAM FILES (X86)\WINDOWS KITS\8.1\LIB\WINV6.3\UM\X86\WINSPOOL.LIB
C:\PROGRAM FILES (X86)\WINDOWS KITS\8.1\LIB\WINV6.3\UM\X86\COMDLG32.LIB
C:\PROGRAM FILES (X86)\WINDOWS KITS\8.1\LIB\WINV6.3\UM\X86\ADVAPI32.LIB
C:\PROGRAM FILES (X86)\WINDOWS KITS\8.1\LIB\WINV6.3\UM\X86\SHELL32.LIB
C:\PROGRAM FILES (X86)\WINDOWS KITS\8.1\LIB\WINV6.3\UM\X86\OLE32.LIB
C:\PROGRAM FILES (X86)\WINDOWS KITS\8.1\LIB\WINV6.3\UM\X86\OLEAUT32.LIB
C:\PROGRAM FILES (X86)\WINDOWS KITS\8.1\LIB\WINV6.3\UM\X86\UUID.LIB
C:\PROGRAM FILES (X86)\WINDOWS KITS\8.1\LIB\WINV6.3\UM\X86\ODBC32.LIB
C:\PROGRAM FILES (X86)\WINDOWS KITS\8.1\LIB\WINV6.3\UM\X86\ODBCCP32.LIB
D:\ONEDRIVE\STUDIA\PROJEKTOWANIE WARSTWY WIZUALNEJ GRY\ZADANIA\ZESTAW 4\ZADANIE 2\OPENGL_PROJECT_5_01\DEBUG\ASSIMPMODEL.OBJ
D:\ONEDRIVE\STUDIA\PROJEKTOWANIE WARSTWY WIZUALNEJ GRY\ZADANIA\ZESTAW 4\ZADANIE 2\OPENGL_PROJECT_5_01\DEBUG\CAMERA.OBJ
D:\ONEDRIVE\STUDIA\PROJEKTOWANIE WARSTWY WIZUALNEJ GRY\ZADANIA\ZESTAW 4\ZADANIE 2\OPENGL_PROJECT_5_01\DEBUG\EVENT.OBJ
D:\ONEDRIVE\STUDIA\PROJEKTOWANIE WARSTWY WIZUALNEJ GRY\ZADANIA\ZESTAW 4\ZADANIE 2\OPENGL_PROJECT_5_01\DEBUG\GL3W.OBJ
D:\ONEDRIVE\STUDIA\PROJEKTOWANIE WARSTWY WIZUALNEJ GRY\ZADANIA\ZESTAW 4\ZADANIE 2\OPENGL_PROJECT_5_01\DEBUG\MAIN.OBJ
D:\ONEDRIVE\STUDIA\PROJEKTOWANIE WARSTWY WIZUALNEJ GRY\ZADANIA\ZESTAW 4\ZADANIE 2\OPENGL_PROJECT_5_01\DEBUG\MATERIALS.OBJ
D:\ONEDRIVE\STUDIA\PROJEKTOWANIE WARSTWY WIZUALNEJ GRY\ZADANIA\ZESTAW 4\ZADANIE 2\OPENGL_PROJECT_5_01\DEBUG\MESH.OBJ
D:\ONEDRIVE\STUDIA\PROJEKTOWANIE WARSTWY WIZUALNEJ GRY\ZADANIA\ZESTAW 4\ZADANIE 2\OPENGL_PROJECT_5_01\DEBUG\SHADER.OBJ
D:\ONEDRIVE\STUDIA\PROJEKTOWANIE WARSTWY WIZUALNEJ GRY\ZADANIA\ZESTAW 4\ZADANIE 2\OPENGL_PROJECT_5_01\DEBUG\STDAFX.OBJ
C:\WINDOWS\GLOBALIZATION\SORTING\SORTDEFAULT.NLS
C:\PROGRAM FILES (X86)\MICROSOFT VISUAL STUDIO\2013\12.0\VC\BIN\C2.DLL
C:\PROGRAM FILES (X86)\MICROSOFT VISUAL STUDIO\2013\12.0\VC\BIN\1033\LINKUI.DLL
C:\PROGRAM FILES (X86)\MICROSOFT VISUAL STUDIO\2013\12.0\VC\BIN\LINK.EXE
C:\WINDOWS\SYSTEM32\RSAENH.DLL
C:\WINDOWS\SYSTEM32\TZRES.DLL
C:\PROGRAM FILES (X86)\MICROSOFT VISUAL STUDIO\2013\12.0\VC\LIB\MSVCPRTD.LIB
C:\PROGRAM FILES (X86)\MICROSOFT VISUAL STUDIO\2013\12.0\VC\LIB\MSVCRTD.LIB
C:\PROGRAM FILES (X86)\MICROSOFT VISUAL STUDIO\2013\12.0\VC\LIB\OLDNAMES.LIB
C:\PROGRAM FILES (X86)\MICROSOFT VISUAL STUDIO\2013\12.0\VC\LIB\MSVCRT.LIB
C:\PROGRAM FILES (X86)\WINDOWS KITS\8.1\BIN\X86\RC.EXE
C:\PROGRAM FILES (X86)\MICROSOFT VISUAL STUDIO\2013\12.0\VC\BIN\CVTRES.EXE
