^D:\ONEDRIVE\STUDIA\PROJEKTOWANIE WARSTWY WIZUALNEJ GRY\SZABLON\OPENGL_PROJECT_5_01\OPENGL_PROJECT_5_01\STDAFX.CPP
C:\PROGRAM FILES (X86)\MICROSOFT VISUAL STUDIO\2013\12.0\VC\BIN\1033\CLUI.DLL
C:\WINDOWS\GLOBALIZATION\SORTING\SORTDEFAULT.NLS
C:\WINDOWS\SYSTEM32\RSAENH.DLL
C:\WINDOWS\SYSTEM32\TZRES.DLL
D:\ONEDRIVE\STUDIA\PROJEKTOWANIE WARSTWY WIZUALNEJ GRY\SZABLON\OPENGL_PROJECT_5_01\OPENGL_PROJECT_5_01\STDAFX.H
D:\ONEDRIVE\STUDIA\PROJEKTOWANIE WARSTWY WIZUALNEJ GRY\SZABLON\OPENGL_PROJECT_5_01\OPENGL_PROJECT_5_01\TARGETVER.H
C:\PROGRAM FILES (X86)\WINDOWS KITS\8.1\INCLUDE\SHARED\SDKDDKVER.H
C:\PROGRAM FILES (X86)\MICROSOFT VISUAL STUDIO\2013\12.0\VC\INCLUDE\STDIO.H
C:\PROGRAM FILES (X86)\MICROSOFT VISUAL STUDIO\2013\12.0\VC\INCLUDE\CRTDEFS.H
C:\PROGRAM FILES (X86)\MICROSOFT VISUAL STUDIO\2013\12.0\VC\INCLUDE\SAL.H
C:\PROGRAM FILES (X86)\MICROSOFT VISUAL STUDIO\2013\12.0\VC\INCLUDE\CONCURRENCYSAL.H
C:\PROGRAM FILES (X86)\MICROSOFT VISUAL STUDIO\2013\12.0\VC\INCLUDE\VADEFS.H
C:\PROGRAM FILES (X86)\MICROSOFT VISUAL STUDIO\2013\12.0\VC\INCLUDE\SWPRINTF.INL
C:\PROGRAM FILES (X86)\MICROSOFT VISUAL STUDIO\2013\12.0\VC\INCLUDE\TCHAR.H
C:\PROGRAM FILES (X86)\MICROSOFT VISUAL STUDIO\2013\12.0\VC\INCLUDE\WCHAR.H
C:\PROGRAM FILES (X86)\MICROSOFT VISUAL STUDIO\2013\12.0\VC\INCLUDE\WTIME.INL
^D:\ONEDRIVE\STUDIA\PROJEKTOWANIE WARSTWY WIZUALNEJ GRY\SZABLON\OPENGL_PROJECT_5_01\OPENGL_PROJECT_5_01\GL3W.C
C:\PROGRAM FILES (X86)\MICROSOFT VISUAL STUDIO\2013\12.0\VC\BIN\1033\CLUI.DLL
C:\WINDOWS\GLOBALIZATION\SORTING\SORTDEFAULT.NLS
C:\WINDOWS\SYSTEM32\RSAENH.DLL
C:\WINDOWS\SYSTEM32\TZRES.DLL
D:\ONEDRIVE\STUDIA\PROJEKTOWANIE WARSTWY WIZUALNEJ GRY\SZABLON\OPENGL_PROJECT_5_01\OPENGL_PROJECT_5_01\GL3W.H
D:\ONEDRIVE\STUDIA\PROJEKTOWANIE WARSTWY WIZUALNEJ GRY\SZABLON\OPENGL_PROJECT_5_01\OPENGL_PROJECT_5_01\GLCOREARB.H
C:\PROGRAM FILES (X86)\WINDOWS KITS\8.1\INCLUDE\UM\WINDOWS.H
C:\PROGRAM FILES (X86)\WINDOWS KITS\8.1\INCLUDE\SHARED\WINAPIFAMILY.H
C:\PROGRAM FILES (X86)\WINDOWS KITS\8.1\INCLUDE\SHARED\SDKDDKVER.H
C:\PROGRAM FILES (X86)\MICROSOFT VISUAL STUDIO\2013\12.0\VC\INCLUDE\EXCPT.H
C:\PROGRAM FILES (X86)\MICROSOFT VISUAL STUDIO\2013\12.0\VC\INCLUDE\CRTDEFS.H
C:\PROGRAM FILES (X86)\MICROSOFT VISUAL STUDIO\2013\12.0\VC\INCLUDE\SAL.H
C:\PROGRAM FILES (X86)\MICROSOFT VISUAL STUDIO\2013\12.0\VC\INCLUDE\CONCURRENCYSAL.H
C:\PROGRAM FILES (X86)\MICROSOFT VISUAL STUDIO\2013\12.0\VC\INCLUDE\VADEFS.H
C:\PROGRAM FILES (X86)\MICROSOFT VISUAL STUDIO\2013\12.0\VC\INCLUDE\STDARG.H
C:\PROGRAM FILES (X86)\WINDOWS KITS\8.1\INCLUDE\SHARED\WINDEF.H
C:\PROGRAM FILES (X86)\WINDOWS KITS\8.1\INCLUDE\SHARED\MINWINDEF.H
C:\PROGRAM FILES (X86)\WINDOWS KITS\8.1\INCLUDE\SHARED\SPECSTRINGS.H
C:\PROGRAM FILES (X86)\WINDOWS KITS\8.1\INCLUDE\SHARED\SPECSTRINGS_STRICT.H
C:\PROGRAM FILES (X86)\WINDOWS KITS\8.1\INCLUDE\SHARED\SPECSTRINGS_UNDEF.H
C:\PROGRAM FILES (X86)\WINDOWS KITS\8.1\INCLUDE\SHARED\DRIVERSPECS.H
C:\PROGRAM FILES (X86)\WINDOWS KITS\8.1\INCLUDE\SHARED\SDV_DRIVERSPECS.H
C:\PROGRAM FILES (X86)\WINDOWS KITS\8.1\INCLUDE\UM\WINNT.H
C:\PROGRAM FILES (X86)\MICROSOFT VISUAL STUDIO\2013\12.0\VC\INCLUDE\CTYPE.H
C:\PROGRAM FILES (X86)\WINDOWS KITS\8.1\INCLUDE\SHARED\KERNELSPECS.H
C:\PROGRAM FILES (X86)\WINDOWS KITS\8.1\INCLUDE\SHARED\BASETSD.H
C:\PROGRAM FILES (X86)\WINDOWS KITS\8.1\INCLUDE\SHARED\GUIDDEF.H
C:\PROGRAM FILES (X86)\MICROSOFT VISUAL STUDIO\2013\12.0\VC\INCLUDE\STRING.H
C:\PROGRAM FILES (X86)\WINDOWS KITS\8.1\INCLUDE\SHARED\PSHPACK4.H
C:\PROGRAM FILES (X86)\WINDOWS KITS\8.1\INCLUDE\SHARED\POPPACK.H
C:\PROGRAM FILES (X86)\WINDOWS KITS\8.1\INCLUDE\SHARED\PSHPACK2.H
C:\PROGRAM FILES (X86)\WINDOWS KITS\8.1\INCLUDE\SHARED\PSHPACK8.H
C:\PROGRAM FILES (X86)\WINDOWS KITS\8.1\INCLUDE\SHARED\APISET.H
C:\PROGRAM FILES (X86)\WINDOWS KITS\8.1\INCLUDE\SHARED\KTMTYPES.H
C:\PROGRAM FILES (X86)\WINDOWS KITS\8.1\INCLUDE\UM\WINBASE.H
C:\PROGRAM FILES (X86)\WINDOWS KITS\8.1\INCLUDE\SHARED\APISETCCONV.H
C:\PROGRAM FILES (X86)\WINDOWS KITS\8.1\INCLUDE\UM\MINWINBASE.H
C:\PROGRAM FILES (X86)\WINDOWS KITS\8.1\INCLUDE\UM\PROCESSENV.H
C:\PROGRAM FILES (X86)\WINDOWS KITS\8.1\INCLUDE\UM\FILEAPI.H
C:\PROGRAM FILES (X86)\WINDOWS KITS\8.1\INCLUDE\UM\DEBUGAPI.H
C:\PROGRAM FILES (X86)\WINDOWS KITS\8.1\INCLUDE\UM\UTILAPISET.H
C:\PROGRAM FILES (X86)\WINDOWS KITS\8.1\INCLUDE\UM\HANDLEAPI.H
C:\PROGRAM FILES (X86)\WINDOWS KITS\8.1\INCLUDE\UM\ERRHANDLINGAPI.H
C:\PROGRAM FILES (X86)\WINDOWS KITS\8.1\INCLUDE\UM\FIBERSAPI.H
C:\PROGRAM FILES (X86)\WINDOWS KITS\8.1\INCLUDE\UM\NAMEDPIPEAPI.H
C:\PROGRAM FILES (X86)\WINDOWS KITS\8.1\INCLUDE\UM\PROFILEAPI.H
C:\PROGRAM FILES (X86)\WINDOWS KITS\8.1\INCLUDE\UM\HEAPAPI.H
C:\PROGRAM FILES (X86)\WINDOWS KITS\8.1\INCLUDE\UM\IOAPISET.H
C:\PROGRAM FILES (X86)\WINDOWS KITS\8.1\INCLUDE\UM\SYNCHAPI.H
C:\PROGRAM FILES (X86)\WINDOWS KITS\8.1\INCLUDE\UM\INTERLOCKEDAPI.H
C:\PROGRAM FILES (X86)\WINDOWS KITS\8.1\INCLUDE\UM\PROCESSTHREADSAPI.H
C:\PROGRAM FILES (X86)\WINDOWS KITS\8.1\INCLUDE\UM\SYSINFOAPI.H
C:\PROGRAM FILES (X86)\WINDOWS KITS\8.1\INCLUDE\UM\MEMORYAPI.H
C:\PROGRAM FILES (X86)\WINDOWS KITS\8.1\INCLUDE\UM\THREADPOOLLEGACYAPISET.H
C:\PROGRAM FILES (X86)\WINDOWS KITS\8.1\INCLUDE\UM\THREADPOOLAPISET.H
C:\PROGRAM FILES (X86)\WINDOWS KITS\8.1\INCLUDE\UM\BEMAPISET.H
C:\PROGRAM FILES (X86)\WINDOWS KITS\8.1\INCLUDE\UM\JOBAPI.H
C:\PROGRAM FILES (X86)\WINDOWS KITS\8.1\INCLUDE\UM\WOW64APISET.H
C:\PROGRAM FILES (X86)\WINDOWS KITS\8.1\INCLUDE\UM\LIBLOADERAPI.H
C:\PROGRAM FILES (X86)\WINDOWS KITS\8.1\INCLUDE\UM\SECURITYBASEAPI.H
C:\PROGRAM FILES (X86)\WINDOWS KITS\8.1\INCLUDE\UM\NAMESPACEAPI.H
C:\PROGRAM FILES (X86)\WINDOWS KITS\8.1\INCLUDE\UM\SYSTEMTOPOLOGYAPI.H
C:\PROGRAM FILES (X86)\WINDOWS KITS\8.1\INCLUDE\UM\PROCESSTOPOLOGYAPI.H
C:\PROGRAM FILES (X86)\WINDOWS KITS\8.1\INCLUDE\UM\SECURITYAPPCONTAINER.H
C:\PROGRAM FILES (X86)\WINDOWS KITS\8.1\INCLUDE\UM\REALTIMEAPISET.H
C:\PROGRAM FILES (X86)\WINDOWS KITS\8.1\INCLUDE\SHARED\WINERROR.H
C:\PROGRAM FILES (X86)\WINDOWS KITS\8.1\INCLUDE\UM\TIMEZONEAPI.H
C:\PROGRAM FILES (X86)\WINDOWS KITS\8.1\INCLUDE\UM\WINGDI.H
C:\PROGRAM FILES (X86)\WINDOWS KITS\8.1\INCLUDE\SHARED\PSHPACK1.H
C:\PROGRAM FILES (X86)\WINDOWS KITS\8.1\INCLUDE\UM\WINUSER.H
C:\PROGRAM FILES (X86)\WINDOWS KITS\8.1\INCLUDE\SHARED\TVOUT.H
C:\PROGRAM FILES (X86)\WINDOWS KITS\8.1\INCLUDE\UM\WINNLS.H
C:\PROGRAM FILES (X86)\WINDOWS KITS\8.1\INCLUDE\UM\DATETIMEAPI.H
C:\PROGRAM FILES (X86)\WINDOWS KITS\8.1\INCLUDE\UM\STRINGAPISET.H
C:\PROGRAM FILES (X86)\WINDOWS KITS\8.1\INCLUDE\UM\WINCON.H
C:\PROGRAM FILES (X86)\WINDOWS KITS\8.1\INCLUDE\UM\CONSOLEAPI.H
C:\PROGRAM FILES (X86)\WINDOWS KITS\8.1\INCLUDE\UM\WINVER.H
C:\PROGRAM FILES (X86)\WINDOWS KITS\8.1\INCLUDE\UM\VERRSRC.H
C:\PROGRAM FILES (X86)\WINDOWS KITS\8.1\INCLUDE\UM\WINREG.H
C:\PROGRAM FILES (X86)\WINDOWS KITS\8.1\INCLUDE\UM\REASON.H
C:\PROGRAM FILES (X86)\WINDOWS KITS\8.1\INCLUDE\UM\WINNETWK.H
C:\PROGRAM FILES (X86)\WINDOWS KITS\8.1\INCLUDE\SHARED\WNNC.H
C:\PROGRAM FILES (X86)\WINDOWS KITS\8.1\INCLUDE\SHARED\STRALIGN.H
C:\PROGRAM FILES (X86)\WINDOWS KITS\8.1\INCLUDE\UM\WINSVC.H
C:\PROGRAM FILES (X86)\WINDOWS KITS\8.1\INCLUDE\UM\MCX.H
C:\PROGRAM FILES (X86)\WINDOWS KITS\8.1\INCLUDE\UM\IMM.H
C:\PROGRAM FILES (X86)\WINDOWS KITS\8.1\INCLUDE\UM\IME_CMODES.H
C:\PROGRAM FILES (X86)\MICROSOFT VISUAL STUDIO\2013\12.0\VC\INCLUDE\STDDEF.H
^D:\ONEDRIVE\STUDIA\PROJEKTOWANIE WARSTWY WIZUALNEJ GRY\SZABLON\OPENGL_PROJECT_5_01\OPENGL_PROJECT_5_01\MAIN.CPP
D:\ONEDRIVE\STUDIA\PROJEKTOWANIE WARSTWY WIZUALNEJ GRY\SZABLON\OPENGL_PROJECT_5_01\OPENGL_PROJECT_5_01\RELEASE\OPENGL_PROJECT_5_01.PCH
C:\PROGRAM FILES (X86)\MICROSOFT VISUAL STUDIO\2013\12.0\VC\INCLUDE\STDLIB.H
C:\PROGRAM FILES (X86)\MICROSOFT VISUAL STUDIO\2013\12.0\VC\INCLUDE\CRTDEFS.H
C:\PROGRAM FILES (X86)\MICROSOFT VISUAL STUDIO\2013\12.0\VC\INCLUDE\LIMITS.H
C:\PROGRAM FILES (X86)\MICROSOFT VISUAL STUDIO\2013\12.0\VC\INCLUDE\STRING
C:\PROGRAM FILES (X86)\MICROSOFT VISUAL STUDIO\2013\12.0\VC\INCLUDE\ITERATOR
C:\PROGRAM FILES (X86)\MICROSOFT VISUAL STUDIO\2013\12.0\VC\INCLUDE\ISTREAM
C:\PROGRAM FILES (X86)\MICROSOFT VISUAL STUDIO\2013\12.0\VC\INCLUDE\OSTREAM
C:\PROGRAM FILES (X86)\MICROSOFT VISUAL STUDIO\2013\12.0\VC\INCLUDE\IOS
C:\PROGRAM FILES (X86)\MICROSOFT VISUAL STUDIO\2013\12.0\VC\INCLUDE\XLOCNUM
C:\PROGRAM FILES (X86)\MICROSOFT VISUAL STUDIO\2013\12.0\VC\INCLUDE\CLIMITS
C:\PROGRAM FILES (X86)\MICROSOFT VISUAL STUDIO\2013\12.0\VC\INCLUDE\YVALS.H
C:\PROGRAM FILES (X86)\MICROSOFT VISUAL STUDIO\2013\12.0\VC\INCLUDE\XKEYCHECK.H
C:\PROGRAM FILES (X86)\MICROSOFT VISUAL STUDIO\2013\12.0\VC\INCLUDE\USE_ANSI.H
C:\PROGRAM FILES (X86)\MICROSOFT VISUAL STUDIO\2013\12.0\VC\INCLUDE\CMATH
C:\PROGRAM FILES (X86)\MICROSOFT VISUAL STUDIO\2013\12.0\VC\INCLUDE\MATH.H
C:\PROGRAM FILES (X86)\MICROSOFT VISUAL STUDIO\2013\12.0\VC\INCLUDE\XTGMATH.H
C:\PROGRAM FILES (X86)\MICROSOFT VISUAL STUDIO\2013\12.0\VC\INCLUDE\XTR1COMMON
C:\PROGRAM FILES (X86)\MICROSOFT VISUAL STUDIO\2013\12.0\VC\INCLUDE\CSTDIO
C:\PROGRAM FILES (X86)\MICROSOFT VISUAL STUDIO\2013\12.0\VC\INCLUDE\CSTDLIB
C:\PROGRAM FILES (X86)\MICROSOFT VISUAL STUDIO\2013\12.0\VC\INCLUDE\STREAMBUF
C:\PROGRAM FILES (X86)\MICROSOFT VISUAL STUDIO\2013\12.0\VC\INCLUDE\XIOSBASE
C:\PROGRAM FILES (X86)\MICROSOFT VISUAL STUDIO\2013\12.0\VC\INCLUDE\XLOCALE
C:\PROGRAM FILES (X86)\MICROSOFT VISUAL STUDIO\2013\12.0\VC\INCLUDE\CSTRING
C:\PROGRAM FILES (X86)\MICROSOFT VISUAL STUDIO\2013\12.0\VC\INCLUDE\STRING.H
C:\PROGRAM FILES (X86)\MICROSOFT VISUAL STUDIO\2013\12.0\VC\INCLUDE\STDEXCEPT
C:\PROGRAM FILES (X86)\MICROSOFT VISUAL STUDIO\2013\12.0\VC\INCLUDE\EXCEPTION
C:\PROGRAM FILES (X86)\MICROSOFT VISUAL STUDIO\2013\12.0\VC\INCLUDE\XSTDDEF
C:\PROGRAM FILES (X86)\MICROSOFT VISUAL STUDIO\2013\12.0\VC\INCLUDE\CSTDDEF
C:\PROGRAM FILES (X86)\MICROSOFT VISUAL STUDIO\2013\12.0\VC\INCLUDE\STDDEF.H
C:\PROGRAM FILES (X86)\MICROSOFT VISUAL STUDIO\2013\12.0\VC\INCLUDE\INITIALIZER_LIST
C:\PROGRAM FILES (X86)\MICROSOFT VISUAL STUDIO\2013\12.0\VC\INCLUDE\EH.H
C:\PROGRAM FILES (X86)\MICROSOFT VISUAL STUDIO\2013\12.0\VC\INCLUDE\MALLOC.H
C:\PROGRAM FILES (X86)\MICROSOFT VISUAL STUDIO\2013\12.0\VC\INCLUDE\XSTRING
C:\PROGRAM FILES (X86)\MICROSOFT VISUAL STUDIO\2013\12.0\VC\INCLUDE\XMEMORY0
C:\PROGRAM FILES (X86)\MICROSOFT VISUAL STUDIO\2013\12.0\VC\INCLUDE\LIMITS
C:\PROGRAM FILES (X86)\MICROSOFT VISUAL STUDIO\2013\12.0\VC\INCLUDE\YMATH.H
C:\PROGRAM FILES (X86)\MICROSOFT VISUAL STUDIO\2013\12.0\VC\INCLUDE\CFLOAT
C:\PROGRAM FILES (X86)\MICROSOFT VISUAL STUDIO\2013\12.0\VC\INCLUDE\FLOAT.H
C:\PROGRAM FILES (X86)\MICROSOFT VISUAL STUDIO\2013\12.0\VC\INCLUDE\CRTWRN.H
C:\PROGRAM FILES (X86)\MICROSOFT VISUAL STUDIO\2013\12.0\VC\INCLUDE\CWCHAR
C:\PROGRAM FILES (X86)\MICROSOFT VISUAL STUDIO\2013\12.0\VC\INCLUDE\NEW
C:\PROGRAM FILES (X86)\MICROSOFT VISUAL STUDIO\2013\12.0\VC\INCLUDE\XUTILITY
C:\PROGRAM FILES (X86)\MICROSOFT VISUAL STUDIO\2013\12.0\VC\INCLUDE\UTILITY
C:\PROGRAM FILES (X86)\MICROSOFT VISUAL STUDIO\2013\12.0\VC\INCLUDE\IOSFWD
C:\PROGRAM FILES (X86)\MICROSOFT VISUAL STUDIO\2013\12.0\VC\INCLUDE\CRTDBG.H
C:\PROGRAM FILES (X86)\MICROSOFT VISUAL STUDIO\2013\12.0\VC\INCLUDE\TYPE_TRAITS
C:\PROGRAM FILES (X86)\MICROSOFT VISUAL STUDIO\2013\12.0\VC\INCLUDE\XREFWRAP
C:\PROGRAM FILES (X86)\MICROSOFT VISUAL STUDIO\2013\12.0\VC\INCLUDE\XATOMIC0.H
C:\PROGRAM FILES (X86)\MICROSOFT VISUAL STUDIO\2013\12.0\VC\INCLUDE\INTRIN.H
C:\PROGRAM FILES (X86)\MICROSOFT VISUAL STUDIO\2013\12.0\VC\INCLUDE\SETJMP.H
C:\PROGRAM FILES (X86)\MICROSOFT VISUAL STUDIO\2013\12.0\VC\INCLUDE\IMMINTRIN.H
C:\PROGRAM FILES (X86)\MICROSOFT VISUAL STUDIO\2013\12.0\VC\INCLUDE\WMMINTRIN.H
C:\PROGRAM FILES (X86)\MICROSOFT VISUAL STUDIO\2013\12.0\VC\INCLUDE\NMMINTRIN.H
C:\PROGRAM FILES (X86)\MICROSOFT VISUAL STUDIO\2013\12.0\VC\INCLUDE\SMMINTRIN.H
C:\PROGRAM FILES (X86)\MICROSOFT VISUAL STUDIO\2013\12.0\VC\INCLUDE\TMMINTRIN.H
C:\PROGRAM FILES (X86)\MICROSOFT VISUAL STUDIO\2013\12.0\VC\INCLUDE\PMMINTRIN.H
C:\PROGRAM FILES (X86)\MICROSOFT VISUAL STUDIO\2013\12.0\VC\INCLUDE\EMMINTRIN.H
C:\PROGRAM FILES (X86)\MICROSOFT VISUAL STUDIO\2013\12.0\VC\INCLUDE\XMMINTRIN.H
C:\PROGRAM FILES (X86)\MICROSOFT VISUAL STUDIO\2013\12.0\VC\INCLUDE\MMINTRIN.H
C:\PROGRAM FILES (X86)\MICROSOFT VISUAL STUDIO\2013\12.0\VC\INCLUDE\AMMINTRIN.H
C:\PROGRAM FILES (X86)\MICROSOFT VISUAL STUDIO\2013\12.0\VC\INCLUDE\MM3DNOW.H
C:\PROGRAM FILES (X86)\MICROSOFT VISUAL STUDIO\2013\12.0\VC\INCLUDE\TYPEINFO
C:\PROGRAM FILES (X86)\MICROSOFT VISUAL STUDIO\2013\12.0\VC\INCLUDE\XLOCINFO
C:\PROGRAM FILES (X86)\MICROSOFT VISUAL STUDIO\2013\12.0\VC\INCLUDE\XLOCINFO.H
C:\PROGRAM FILES (X86)\MICROSOFT VISUAL STUDIO\2013\12.0\VC\INCLUDE\CTYPE.H
C:\PROGRAM FILES (X86)\MICROSOFT VISUAL STUDIO\2013\12.0\VC\INCLUDE\LOCALE.H
C:\PROGRAM FILES (X86)\MICROSOFT VISUAL STUDIO\2013\12.0\VC\INCLUDE\XDEBUG
C:\PROGRAM FILES (X86)\MICROSOFT VISUAL STUDIO\2013\12.0\VC\INCLUDE\XFACET
C:\PROGRAM FILES (X86)\MICROSOFT VISUAL STUDIO\2013\12.0\VC\INCLUDE\SYSTEM_ERROR
C:\PROGRAM FILES (X86)\MICROSOFT VISUAL STUDIO\2013\12.0\VC\INCLUDE\CERRNO
C:\PROGRAM FILES (X86)\MICROSOFT VISUAL STUDIO\2013\12.0\VC\INCLUDE\ERRNO.H
C:\PROGRAM FILES (X86)\MICROSOFT VISUAL STUDIO\2013\12.0\VC\INCLUDE\SHARE.H
C:\PROGRAM FILES (X86)\MICROSOFT VISUAL STUDIO\2013\12.0\VC\INCLUDE\VECTOR
C:\PROGRAM FILES (X86)\MICROSOFT VISUAL STUDIO\2013\12.0\VC\INCLUDE\XMEMORY
D:\ONEDRIVE\STUDIA\PROJEKTOWANIE WARSTWY WIZUALNEJ GRY\SZABLON\OPENGL_PROJECT_5_01\OPENGL_PROJECT_5_01\GL3W.H
D:\ONEDRIVE\STUDIA\PROJEKTOWANIE WARSTWY WIZUALNEJ GRY\SZABLON\OPENGL_PROJECT_5_01\OPENGL_PROJECT_5_01\GLCOREARB.H
C:\PROGRAM FILES (X86)\WINDOWS KITS\8.1\INCLUDE\UM\WINDOWS.H
C:\PROGRAM FILES (X86)\WINDOWS KITS\8.1\INCLUDE\SHARED\WINAPIFAMILY.H
C:\PROGRAM FILES (X86)\MICROSOFT VISUAL STUDIO\2013\12.0\VC\INCLUDE\EXCPT.H
C:\PROGRAM FILES (X86)\MICROSOFT VISUAL STUDIO\2013\12.0\VC\INCLUDE\STDARG.H
C:\PROGRAM FILES (X86)\WINDOWS KITS\8.1\INCLUDE\SHARED\WINDEF.H
C:\PROGRAM FILES (X86)\WINDOWS KITS\8.1\INCLUDE\SHARED\MINWINDEF.H
C:\PROGRAM FILES (X86)\WINDOWS KITS\8.1\INCLUDE\SHARED\SPECSTRINGS.H
C:\PROGRAM FILES (X86)\WINDOWS KITS\8.1\INCLUDE\SHARED\SPECSTRINGS_STRICT.H
C:\PROGRAM FILES (X86)\WINDOWS KITS\8.1\INCLUDE\SHARED\SPECSTRINGS_UNDEF.H
C:\PROGRAM FILES (X86)\WINDOWS KITS\8.1\INCLUDE\SHARED\DRIVERSPECS.H
C:\PROGRAM FILES (X86)\WINDOWS KITS\8.1\INCLUDE\SHARED\SDV_DRIVERSPECS.H
C:\PROGRAM FILES (X86)\WINDOWS KITS\8.1\INCLUDE\UM\WINNT.H
C:\PROGRAM FILES (X86)\WINDOWS KITS\8.1\INCLUDE\SHARED\KERNELSPECS.H
C:\PROGRAM FILES (X86)\WINDOWS KITS\8.1\INCLUDE\SHARED\BASETSD.H
C:\PROGRAM FILES (X86)\WINDOWS KITS\8.1\INCLUDE\SHARED\GUIDDEF.H
C:\PROGRAM FILES (X86)\WINDOWS KITS\8.1\INCLUDE\SHARED\PSHPACK4.H
C:\PROGRAM FILES (X86)\WINDOWS KITS\8.1\INCLUDE\SHARED\POPPACK.H
C:\PROGRAM FILES (X86)\WINDOWS KITS\8.1\INCLUDE\SHARED\PSHPACK2.H
C:\PROGRAM FILES (X86)\WINDOWS KITS\8.1\INCLUDE\SHARED\PSHPACK8.H
C:\PROGRAM FILES (X86)\WINDOWS KITS\8.1\INCLUDE\SHARED\APISET.H
C:\PROGRAM FILES (X86)\WINDOWS KITS\8.1\INCLUDE\SHARED\KTMTYPES.H
C:\PROGRAM FILES (X86)\WINDOWS KITS\8.1\INCLUDE\UM\WINBASE.H
C:\PROGRAM FILES (X86)\WINDOWS KITS\8.1\INCLUDE\SHARED\APISETCCONV.H
C:\PROGRAM FILES (X86)\WINDOWS KITS\8.1\INCLUDE\UM\MINWINBASE.H
C:\PROGRAM FILES (X86)\WINDOWS KITS\8.1\INCLUDE\UM\PROCESSENV.H
C:\PROGRAM FILES (X86)\WINDOWS KITS\8.1\INCLUDE\UM\FILEAPI.H
C:\PROGRAM FILES (X86)\WINDOWS KITS\8.1\INCLUDE\UM\DEBUGAPI.H
C:\PROGRAM FILES (X86)\WINDOWS KITS\8.1\INCLUDE\UM\UTILAPISET.H
C:\PROGRAM FILES (X86)\WINDOWS KITS\8.1\INCLUDE\UM\HANDLEAPI.H
C:\PROGRAM FILES (X86)\WINDOWS KITS\8.1\INCLUDE\UM\ERRHANDLINGAPI.H
C:\PROGRAM FILES (X86)\WINDOWS KITS\8.1\INCLUDE\UM\FIBERSAPI.H
C:\PROGRAM FILES (X86)\WINDOWS KITS\8.1\INCLUDE\UM\NAMEDPIPEAPI.H
C:\PROGRAM FILES (X86)\WINDOWS KITS\8.1\INCLUDE\UM\PROFILEAPI.H
C:\PROGRAM FILES (X86)\WINDOWS KITS\8.1\INCLUDE\UM\HEAPAPI.H
C:\PROGRAM FILES (X86)\WINDOWS KITS\8.1\INCLUDE\UM\IOAPISET.H
C:\PROGRAM FILES (X86)\WINDOWS KITS\8.1\INCLUDE\UM\SYNCHAPI.H
C:\PROGRAM FILES (X86)\WINDOWS KITS\8.1\INCLUDE\UM\INTERLOCKEDAPI.H
C:\PROGRAM FILES (X86)\WINDOWS KITS\8.1\INCLUDE\UM\PROCESSTHREADSAPI.H
C:\PROGRAM FILES (X86)\WINDOWS KITS\8.1\INCLUDE\UM\SYSINFOAPI.H
C:\PROGRAM FILES (X86)\WINDOWS KITS\8.1\INCLUDE\UM\MEMORYAPI.H
C:\PROGRAM FILES (X86)\WINDOWS KITS\8.1\INCLUDE\UM\THREADPOOLLEGACYAPISET.H
C:\PROGRAM FILES (X86)\WINDOWS KITS\8.1\INCLUDE\UM\THREADPOOLAPISET.H
C:\PROGRAM FILES (X86)\WINDOWS KITS\8.1\INCLUDE\UM\BEMAPISET.H
C:\PROGRAM FILES (X86)\WINDOWS KITS\8.1\INCLUDE\UM\JOBAPI.H
C:\PROGRAM FILES (X86)\WINDOWS KITS\8.1\INCLUDE\UM\WOW64APISET.H
C:\PROGRAM FILES (X86)\WINDOWS KITS\8.1\INCLUDE\UM\LIBLOADERAPI.H
C:\PROGRAM FILES (X86)\WINDOWS KITS\8.1\INCLUDE\UM\SECURITYBASEAPI.H
C:\PROGRAM FILES (X86)\WINDOWS KITS\8.1\INCLUDE\UM\NAMESPACEAPI.H
C:\PROGRAM FILES (X86)\WINDOWS KITS\8.1\INCLUDE\UM\SYSTEMTOPOLOGYAPI.H
C:\PROGRAM FILES (X86)\WINDOWS KITS\8.1\INCLUDE\UM\PROCESSTOPOLOGYAPI.H
C:\PROGRAM FILES (X86)\WINDOWS KITS\8.1\INCLUDE\UM\SECURITYAPPCONTAINER.H
C:\PROGRAM FILES (X86)\WINDOWS KITS\8.1\INCLUDE\UM\REALTIMEAPISET.H
C:\PROGRAM FILES (X86)\WINDOWS KITS\8.1\INCLUDE\SHARED\WINERROR.H
C:\PROGRAM FILES (X86)\WINDOWS KITS\8.1\INCLUDE\UM\TIMEZONEAPI.H
C:\PROGRAM FILES (X86)\WINDOWS KITS\8.1\INCLUDE\UM\WINGDI.H
C:\PROGRAM FILES (X86)\WINDOWS KITS\8.1\INCLUDE\SHARED\PSHPACK1.H
C:\PROGRAM FILES (X86)\WINDOWS KITS\8.1\INCLUDE\UM\WINUSER.H
C:\PROGRAM FILES (X86)\WINDOWS KITS\8.1\INCLUDE\SHARED\TVOUT.H
C:\PROGRAM FILES (X86)\WINDOWS KITS\8.1\INCLUDE\UM\WINNLS.H
C:\PROGRAM FILES (X86)\WINDOWS KITS\8.1\INCLUDE\UM\DATETIMEAPI.H
C:\PROGRAM FILES (X86)\WINDOWS KITS\8.1\INCLUDE\UM\STRINGAPISET.H
C:\PROGRAM FILES (X86)\WINDOWS KITS\8.1\INCLUDE\UM\WINCON.H
C:\PROGRAM FILES (X86)\WINDOWS KITS\8.1\INCLUDE\UM\CONSOLEAPI.H
C:\PROGRAM FILES (X86)\WINDOWS KITS\8.1\INCLUDE\UM\WINVER.H
C:\PROGRAM FILES (X86)\WINDOWS KITS\8.1\INCLUDE\UM\VERRSRC.H
C:\PROGRAM FILES (X86)\WINDOWS KITS\8.1\INCLUDE\UM\WINREG.H
C:\PROGRAM FILES (X86)\WINDOWS KITS\8.1\INCLUDE\UM\REASON.H
C:\PROGRAM FILES (X86)\WINDOWS KITS\8.1\INCLUDE\UM\WINNETWK.H
C:\PROGRAM FILES (X86)\WINDOWS KITS\8.1\INCLUDE\SHARED\WNNC.H
C:\PROGRAM FILES (X86)\WINDOWS KITS\8.1\INCLUDE\SHARED\STRALIGN.H
C:\PROGRAM FILES (X86)\WINDOWS KITS\8.1\INCLUDE\UM\WINSVC.H
C:\PROGRAM FILES (X86)\WINDOWS KITS\8.1\INCLUDE\UM\MCX.H
C:\PROGRAM FILES (X86)\WINDOWS KITS\8.1\INCLUDE\UM\IMM.H
C:\PROGRAM FILES (X86)\WINDOWS KITS\8.1\INCLUDE\UM\IME_CMODES.H
D:\DEVELOPMENT\GLFW-3.1.2.BIN.WIN32\GLFW-3.1.2.BIN.WIN32\INCLUDE\GLFW\GLFW3.H
C:\PROGRAM FILES (X86)\WINDOWS KITS\8.1\INCLUDE\UM\GL\GL.H
D:\ONEDRIVE\STUDIA\PROJEKTOWANIE WARSTWY WIZUALNEJ GRY\SZABLON\OPENGL_PROJECT_5_01\OPENGL_PROJECT_5_01\SHADER.H
D:\ONEDRIVE\STUDIA\PROJEKTOWANIE WARSTWY WIZUALNEJ GRY\SZABLON\OPENGL_PROJECT_5_01\OPENGL_PROJECT_5_01\MESH.H
D:\ONEDRIVE\STUDIA\PROJEKTOWANIE WARSTWY WIZUALNEJ GRY\SZABLON\OPENGL_PROJECT_5_01\OPENGL_PROJECT_5_01\GLM\GLM.HPP
D:\ONEDRIVE\STUDIA\PROJEKTOWANIE WARSTWY WIZUALNEJ GRY\SZABLON\OPENGL_PROJECT_5_01\OPENGL_PROJECT_5_01\GLM\DETAIL\_FIXES.HPP
C:\PROGRAM FILES (X86)\MICROSOFT VISUAL STUDIO\2013\12.0\VC\INCLUDE\CASSERT
C:\PROGRAM FILES (X86)\MICROSOFT VISUAL STUDIO\2013\12.0\VC\INCLUDE\ASSERT.H
D:\ONEDRIVE\STUDIA\PROJEKTOWANIE WARSTWY WIZUALNEJ GRY\SZABLON\OPENGL_PROJECT_5_01\OPENGL_PROJECT_5_01\GLM\FWD.HPP
D:\ONEDRIVE\STUDIA\PROJEKTOWANIE WARSTWY WIZUALNEJ GRY\SZABLON\OPENGL_PROJECT_5_01\OPENGL_PROJECT_5_01\GLM\DETAIL\TYPE_INT.HPP
D:\ONEDRIVE\STUDIA\PROJEKTOWANIE WARSTWY WIZUALNEJ GRY\SZABLON\OPENGL_PROJECT_5_01\OPENGL_PROJECT_5_01\GLM\DETAIL\SETUP.HPP
C:\PROGRAM FILES (X86)\MICROSOFT VISUAL STUDIO\2013\12.0\VC\INCLUDE\CSTDINT
C:\PROGRAM FILES (X86)\MICROSOFT VISUAL STUDIO\2013\12.0\VC\INCLUDE\STDINT.H
D:\ONEDRIVE\STUDIA\PROJEKTOWANIE WARSTWY WIZUALNEJ GRY\SZABLON\OPENGL_PROJECT_5_01\OPENGL_PROJECT_5_01\GLM\DETAIL\TYPE_FLOAT.HPP
D:\ONEDRIVE\STUDIA\PROJEKTOWANIE WARSTWY WIZUALNEJ GRY\SZABLON\OPENGL_PROJECT_5_01\OPENGL_PROJECT_5_01\GLM\DETAIL\TYPE_VEC.HPP
D:\ONEDRIVE\STUDIA\PROJEKTOWANIE WARSTWY WIZUALNEJ GRY\SZABLON\OPENGL_PROJECT_5_01\OPENGL_PROJECT_5_01\GLM\DETAIL\PRECISION.HPP
D:\ONEDRIVE\STUDIA\PROJEKTOWANIE WARSTWY WIZUALNEJ GRY\SZABLON\OPENGL_PROJECT_5_01\OPENGL_PROJECT_5_01\GLM\DETAIL\TYPE_MAT.HPP
D:\ONEDRIVE\STUDIA\PROJEKTOWANIE WARSTWY WIZUALNEJ GRY\SZABLON\OPENGL_PROJECT_5_01\OPENGL_PROJECT_5_01\GLM\VEC2.HPP
D:\ONEDRIVE\STUDIA\PROJEKTOWANIE WARSTWY WIZUALNEJ GRY\SZABLON\OPENGL_PROJECT_5_01\OPENGL_PROJECT_5_01\GLM\DETAIL\TYPE_VEC2.HPP
D:\ONEDRIVE\STUDIA\PROJEKTOWANIE WARSTWY WIZUALNEJ GRY\SZABLON\OPENGL_PROJECT_5_01\OPENGL_PROJECT_5_01\GLM\DETAIL\TYPE_VEC2.INL
D:\ONEDRIVE\STUDIA\PROJEKTOWANIE WARSTWY WIZUALNEJ GRY\SZABLON\OPENGL_PROJECT_5_01\OPENGL_PROJECT_5_01\GLM\VEC3.HPP
D:\ONEDRIVE\STUDIA\PROJEKTOWANIE WARSTWY WIZUALNEJ GRY\SZABLON\OPENGL_PROJECT_5_01\OPENGL_PROJECT_5_01\GLM\DETAIL\TYPE_VEC3.HPP
D:\ONEDRIVE\STUDIA\PROJEKTOWANIE WARSTWY WIZUALNEJ GRY\SZABLON\OPENGL_PROJECT_5_01\OPENGL_PROJECT_5_01\GLM\DETAIL\TYPE_VEC3.INL
D:\ONEDRIVE\STUDIA\PROJEKTOWANIE WARSTWY WIZUALNEJ GRY\SZABLON\OPENGL_PROJECT_5_01\OPENGL_PROJECT_5_01\GLM\VEC4.HPP
D:\ONEDRIVE\STUDIA\PROJEKTOWANIE WARSTWY WIZUALNEJ GRY\SZABLON\OPENGL_PROJECT_5_01\OPENGL_PROJECT_5_01\GLM\DETAIL\TYPE_VEC4.HPP
D:\ONEDRIVE\STUDIA\PROJEKTOWANIE WARSTWY WIZUALNEJ GRY\SZABLON\OPENGL_PROJECT_5_01\OPENGL_PROJECT_5_01\GLM\DETAIL\TYPE_VEC4.INL
D:\ONEDRIVE\STUDIA\PROJEKTOWANIE WARSTWY WIZUALNEJ GRY\SZABLON\OPENGL_PROJECT_5_01\OPENGL_PROJECT_5_01\GLM\DETAIL\TYPE_VEC4_SSE2.INL
D:\ONEDRIVE\STUDIA\PROJEKTOWANIE WARSTWY WIZUALNEJ GRY\SZABLON\OPENGL_PROJECT_5_01\OPENGL_PROJECT_5_01\GLM\MAT2X2.HPP
D:\ONEDRIVE\STUDIA\PROJEKTOWANIE WARSTWY WIZUALNEJ GRY\SZABLON\OPENGL_PROJECT_5_01\OPENGL_PROJECT_5_01\GLM\DETAIL\TYPE_MAT2X2.HPP
D:\ONEDRIVE\STUDIA\PROJEKTOWANIE WARSTWY WIZUALNEJ GRY\SZABLON\OPENGL_PROJECT_5_01\OPENGL_PROJECT_5_01\GLM\DETAIL\TYPE_MAT2X2.INL
D:\ONEDRIVE\STUDIA\PROJEKTOWANIE WARSTWY WIZUALNEJ GRY\SZABLON\OPENGL_PROJECT_5_01\OPENGL_PROJECT_5_01\GLM\MAT2X3.HPP
D:\ONEDRIVE\STUDIA\PROJEKTOWANIE WARSTWY WIZUALNEJ GRY\SZABLON\OPENGL_PROJECT_5_01\OPENGL_PROJECT_5_01\GLM\DETAIL\TYPE_MAT2X3.HPP
D:\ONEDRIVE\STUDIA\PROJEKTOWANIE WARSTWY WIZUALNEJ GRY\SZABLON\OPENGL_PROJECT_5_01\OPENGL_PROJECT_5_01\GLM\DETAIL\TYPE_MAT2X3.INL
D:\ONEDRIVE\STUDIA\PROJEKTOWANIE WARSTWY WIZUALNEJ GRY\SZABLON\OPENGL_PROJECT_5_01\OPENGL_PROJECT_5_01\GLM\MAT2X4.HPP
D:\ONEDRIVE\STUDIA\PROJEKTOWANIE WARSTWY WIZUALNEJ GRY\SZABLON\OPENGL_PROJECT_5_01\OPENGL_PROJECT_5_01\GLM\DETAIL\TYPE_MAT2X4.HPP
D:\ONEDRIVE\STUDIA\PROJEKTOWANIE WARSTWY WIZUALNEJ GRY\SZABLON\OPENGL_PROJECT_5_01\OPENGL_PROJECT_5_01\GLM\DETAIL\TYPE_MAT2X4.INL
D:\ONEDRIVE\STUDIA\PROJEKTOWANIE WARSTWY WIZUALNEJ GRY\SZABLON\OPENGL_PROJECT_5_01\OPENGL_PROJECT_5_01\GLM\MAT3X2.HPP
D:\ONEDRIVE\STUDIA\PROJEKTOWANIE WARSTWY WIZUALNEJ GRY\SZABLON\OPENGL_PROJECT_5_01\OPENGL_PROJECT_5_01\GLM\DETAIL\TYPE_MAT3X2.HPP
D:\ONEDRIVE\STUDIA\PROJEKTOWANIE WARSTWY WIZUALNEJ GRY\SZABLON\OPENGL_PROJECT_5_01\OPENGL_PROJECT_5_01\GLM\DETAIL\TYPE_MAT3X2.INL
D:\ONEDRIVE\STUDIA\PROJEKTOWANIE WARSTWY WIZUALNEJ GRY\SZABLON\OPENGL_PROJECT_5_01\OPENGL_PROJECT_5_01\GLM\MAT3X3.HPP
D:\ONEDRIVE\STUDIA\PROJEKTOWANIE WARSTWY WIZUALNEJ GRY\SZABLON\OPENGL_PROJECT_5_01\OPENGL_PROJECT_5_01\GLM\DETAIL\TYPE_MAT3X3.HPP
D:\ONEDRIVE\STUDIA\PROJEKTOWANIE WARSTWY WIZUALNEJ GRY\SZABLON\OPENGL_PROJECT_5_01\OPENGL_PROJECT_5_01\GLM\DETAIL\TYPE_MAT3X3.INL
D:\ONEDRIVE\STUDIA\PROJEKTOWANIE WARSTWY WIZUALNEJ GRY\SZABLON\OPENGL_PROJECT_5_01\OPENGL_PROJECT_5_01\GLM\MAT3X4.HPP
D:\ONEDRIVE\STUDIA\PROJEKTOWANIE WARSTWY WIZUALNEJ GRY\SZABLON\OPENGL_PROJECT_5_01\OPENGL_PROJECT_5_01\GLM\DETAIL\TYPE_MAT3X4.HPP
D:\ONEDRIVE\STUDIA\PROJEKTOWANIE WARSTWY WIZUALNEJ GRY\SZABLON\OPENGL_PROJECT_5_01\OPENGL_PROJECT_5_01\GLM\DETAIL\TYPE_MAT3X4.INL
D:\ONEDRIVE\STUDIA\PROJEKTOWANIE WARSTWY WIZUALNEJ GRY\SZABLON\OPENGL_PROJECT_5_01\OPENGL_PROJECT_5_01\GLM\MAT4X2.HPP
D:\ONEDRIVE\STUDIA\PROJEKTOWANIE WARSTWY WIZUALNEJ GRY\SZABLON\OPENGL_PROJECT_5_01\OPENGL_PROJECT_5_01\GLM\DETAIL\TYPE_MAT4X2.HPP
D:\ONEDRIVE\STUDIA\PROJEKTOWANIE WARSTWY WIZUALNEJ GRY\SZABLON\OPENGL_PROJECT_5_01\OPENGL_PROJECT_5_01\GLM\DETAIL\TYPE_MAT4X2.INL
D:\ONEDRIVE\STUDIA\PROJEKTOWANIE WARSTWY WIZUALNEJ GRY\SZABLON\OPENGL_PROJECT_5_01\OPENGL_PROJECT_5_01\GLM\MAT4X3.HPP
D:\ONEDRIVE\STUDIA\PROJEKTOWANIE WARSTWY WIZUALNEJ GRY\SZABLON\OPENGL_PROJECT_5_01\OPENGL_PROJECT_5_01\GLM\DETAIL\TYPE_MAT4X3.HPP
D:\ONEDRIVE\STUDIA\PROJEKTOWANIE WARSTWY WIZUALNEJ GRY\SZABLON\OPENGL_PROJECT_5_01\OPENGL_PROJECT_5_01\GLM\DETAIL\TYPE_MAT4X3.INL
D:\ONEDRIVE\STUDIA\PROJEKTOWANIE WARSTWY WIZUALNEJ GRY\SZABLON\OPENGL_PROJECT_5_01\OPENGL_PROJECT_5_01\GLM\MAT4X4.HPP
D:\ONEDRIVE\STUDIA\PROJEKTOWANIE WARSTWY WIZUALNEJ GRY\SZABLON\OPENGL_PROJECT_5_01\OPENGL_PROJECT_5_01\GLM\DETAIL\TYPE_MAT4X4.HPP
D:\ONEDRIVE\STUDIA\PROJEKTOWANIE WARSTWY WIZUALNEJ GRY\SZABLON\OPENGL_PROJECT_5_01\OPENGL_PROJECT_5_01\GLM\DETAIL\TYPE_MAT4X4.INL
D:\ONEDRIVE\STUDIA\PROJEKTOWANIE WARSTWY WIZUALNEJ GRY\SZABLON\OPENGL_PROJECT_5_01\OPENGL_PROJECT_5_01\GLM\TRIGONOMETRIC.HPP
D:\ONEDRIVE\STUDIA\PROJEKTOWANIE WARSTWY WIZUALNEJ GRY\SZABLON\OPENGL_PROJECT_5_01\OPENGL_PROJECT_5_01\GLM\DETAIL\FUNC_TRIGONOMETRIC.HPP
D:\ONEDRIVE\STUDIA\PROJEKTOWANIE WARSTWY WIZUALNEJ GRY\SZABLON\OPENGL_PROJECT_5_01\OPENGL_PROJECT_5_01\GLM\DETAIL\FUNC_TRIGONOMETRIC.INL
D:\ONEDRIVE\STUDIA\PROJEKTOWANIE WARSTWY WIZUALNEJ GRY\SZABLON\OPENGL_PROJECT_5_01\OPENGL_PROJECT_5_01\GLM\DETAIL\_VECTORIZE.HPP
D:\ONEDRIVE\STUDIA\PROJEKTOWANIE WARSTWY WIZUALNEJ GRY\SZABLON\OPENGL_PROJECT_5_01\OPENGL_PROJECT_5_01\GLM\DETAIL\TYPE_VEC1.HPP
D:\ONEDRIVE\STUDIA\PROJEKTOWANIE WARSTWY WIZUALNEJ GRY\SZABLON\OPENGL_PROJECT_5_01\OPENGL_PROJECT_5_01\GLM\DETAIL\TYPE_VEC1.INL
D:\ONEDRIVE\STUDIA\PROJEKTOWANIE WARSTWY WIZUALNEJ GRY\SZABLON\OPENGL_PROJECT_5_01\OPENGL_PROJECT_5_01\GLM\EXPONENTIAL.HPP
D:\ONEDRIVE\STUDIA\PROJEKTOWANIE WARSTWY WIZUALNEJ GRY\SZABLON\OPENGL_PROJECT_5_01\OPENGL_PROJECT_5_01\GLM\DETAIL\FUNC_EXPONENTIAL.HPP
D:\ONEDRIVE\STUDIA\PROJEKTOWANIE WARSTWY WIZUALNEJ GRY\SZABLON\OPENGL_PROJECT_5_01\OPENGL_PROJECT_5_01\GLM\DETAIL\FUNC_EXPONENTIAL.INL
D:\ONEDRIVE\STUDIA\PROJEKTOWANIE WARSTWY WIZUALNEJ GRY\SZABLON\OPENGL_PROJECT_5_01\OPENGL_PROJECT_5_01\GLM\DETAIL\FUNC_VECTOR_RELATIONAL.HPP
D:\ONEDRIVE\STUDIA\PROJEKTOWANIE WARSTWY WIZUALNEJ GRY\SZABLON\OPENGL_PROJECT_5_01\OPENGL_PROJECT_5_01\GLM\DETAIL\FUNC_VECTOR_RELATIONAL.INL
D:\ONEDRIVE\STUDIA\PROJEKTOWANIE WARSTWY WIZUALNEJ GRY\SZABLON\OPENGL_PROJECT_5_01\OPENGL_PROJECT_5_01\GLM\COMMON.HPP
D:\ONEDRIVE\STUDIA\PROJEKTOWANIE WARSTWY WIZUALNEJ GRY\SZABLON\OPENGL_PROJECT_5_01\OPENGL_PROJECT_5_01\GLM\DETAIL\FUNC_COMMON.HPP
D:\ONEDRIVE\STUDIA\PROJEKTOWANIE WARSTWY WIZUALNEJ GRY\SZABLON\OPENGL_PROJECT_5_01\OPENGL_PROJECT_5_01\GLM\DETAIL\FUNC_COMMON.INL
D:\ONEDRIVE\STUDIA\PROJEKTOWANIE WARSTWY WIZUALNEJ GRY\SZABLON\OPENGL_PROJECT_5_01\OPENGL_PROJECT_5_01\GLM\PACKING.HPP
D:\ONEDRIVE\STUDIA\PROJEKTOWANIE WARSTWY WIZUALNEJ GRY\SZABLON\OPENGL_PROJECT_5_01\OPENGL_PROJECT_5_01\GLM\DETAIL\FUNC_PACKING.HPP
D:\ONEDRIVE\STUDIA\PROJEKTOWANIE WARSTWY WIZUALNEJ GRY\SZABLON\OPENGL_PROJECT_5_01\OPENGL_PROJECT_5_01\GLM\DETAIL\FUNC_PACKING.INL
D:\ONEDRIVE\STUDIA\PROJEKTOWANIE WARSTWY WIZUALNEJ GRY\SZABLON\OPENGL_PROJECT_5_01\OPENGL_PROJECT_5_01\GLM\DETAIL\TYPE_HALF.HPP
D:\ONEDRIVE\STUDIA\PROJEKTOWANIE WARSTWY WIZUALNEJ GRY\SZABLON\OPENGL_PROJECT_5_01\OPENGL_PROJECT_5_01\GLM\DETAIL\TYPE_HALF.INL
D:\ONEDRIVE\STUDIA\PROJEKTOWANIE WARSTWY WIZUALNEJ GRY\SZABLON\OPENGL_PROJECT_5_01\OPENGL_PROJECT_5_01\GLM\GEOMETRIC.HPP
D:\ONEDRIVE\STUDIA\PROJEKTOWANIE WARSTWY WIZUALNEJ GRY\SZABLON\OPENGL_PROJECT_5_01\OPENGL_PROJECT_5_01\GLM\DETAIL\FUNC_GEOMETRIC.HPP
D:\ONEDRIVE\STUDIA\PROJEKTOWANIE WARSTWY WIZUALNEJ GRY\SZABLON\OPENGL_PROJECT_5_01\OPENGL_PROJECT_5_01\GLM\DETAIL\FUNC_GEOMETRIC.INL
D:\ONEDRIVE\STUDIA\PROJEKTOWANIE WARSTWY WIZUALNEJ GRY\SZABLON\OPENGL_PROJECT_5_01\OPENGL_PROJECT_5_01\GLM\MATRIX.HPP
D:\ONEDRIVE\STUDIA\PROJEKTOWANIE WARSTWY WIZUALNEJ GRY\SZABLON\OPENGL_PROJECT_5_01\OPENGL_PROJECT_5_01\GLM\DETAIL\FUNC_MATRIX.HPP
D:\ONEDRIVE\STUDIA\PROJEKTOWANIE WARSTWY WIZUALNEJ GRY\SZABLON\OPENGL_PROJECT_5_01\OPENGL_PROJECT_5_01\GLM\DETAIL\FUNC_MATRIX.INL
D:\ONEDRIVE\STUDIA\PROJEKTOWANIE WARSTWY WIZUALNEJ GRY\SZABLON\OPENGL_PROJECT_5_01\OPENGL_PROJECT_5_01\GLM\VECTOR_RELATIONAL.HPP
D:\ONEDRIVE\STUDIA\PROJEKTOWANIE WARSTWY WIZUALNEJ GRY\SZABLON\OPENGL_PROJECT_5_01\OPENGL_PROJECT_5_01\GLM\INTEGER.HPP
D:\ONEDRIVE\STUDIA\PROJEKTOWANIE WARSTWY WIZUALNEJ GRY\SZABLON\OPENGL_PROJECT_5_01\OPENGL_PROJECT_5_01\GLM\DETAIL\FUNC_INTEGER.HPP
D:\ONEDRIVE\STUDIA\PROJEKTOWANIE WARSTWY WIZUALNEJ GRY\SZABLON\OPENGL_PROJECT_5_01\OPENGL_PROJECT_5_01\GLM\DETAIL\FUNC_INTEGER.INL
D:\ONEDRIVE\STUDIA\PROJEKTOWANIE WARSTWY WIZUALNEJ GRY\SZABLON\OPENGL_PROJECT_5_01\OPENGL_PROJECT_5_01\GLM\GTX\TRANSFORM.HPP
D:\ONEDRIVE\STUDIA\PROJEKTOWANIE WARSTWY WIZUALNEJ GRY\SZABLON\OPENGL_PROJECT_5_01\OPENGL_PROJECT_5_01\GLM\GTC\MATRIX_TRANSFORM.HPP
D:\ONEDRIVE\STUDIA\PROJEKTOWANIE WARSTWY WIZUALNEJ GRY\SZABLON\OPENGL_PROJECT_5_01\OPENGL_PROJECT_5_01\GLM\GTC\CONSTANTS.HPP
D:\ONEDRIVE\STUDIA\PROJEKTOWANIE WARSTWY WIZUALNEJ GRY\SZABLON\OPENGL_PROJECT_5_01\OPENGL_PROJECT_5_01\GLM\GTC\CONSTANTS.INL
D:\ONEDRIVE\STUDIA\PROJEKTOWANIE WARSTWY WIZUALNEJ GRY\SZABLON\OPENGL_PROJECT_5_01\OPENGL_PROJECT_5_01\GLM\GTC\MATRIX_TRANSFORM.INL
D:\ONEDRIVE\STUDIA\PROJEKTOWANIE WARSTWY WIZUALNEJ GRY\SZABLON\OPENGL_PROJECT_5_01\OPENGL_PROJECT_5_01\GLM\GTX\TRANSFORM.INL
D:\ONEDRIVE\STUDIA\PROJEKTOWANIE WARSTWY WIZUALNEJ GRY\SZABLON\OPENGL_PROJECT_5_01\OPENGL_PROJECT_5_01\APPLICATION.H
D:\ONEDRIVE\STUDIA\PROJEKTOWANIE WARSTWY WIZUALNEJ GRY\SZABLON\OPENGL_PROJECT_5_01\OPENGL_PROJECT_5_01\SPRITE.H
C:\PROGRAM FILES (X86)\MICROSOFT VISUAL STUDIO\2013\12.0\VC\INCLUDE\LIST
^D:\ONEDRIVE\STUDIA\PROJEKTOWANIE WARSTWY WIZUALNEJ GRY\SZABLON\OPENGL_PROJECT_5_01\OPENGL_PROJECT_5_01\MESH.CPP
D:\ONEDRIVE\STUDIA\PROJEKTOWANIE WARSTWY WIZUALNEJ GRY\SZABLON\OPENGL_PROJECT_5_01\OPENGL_PROJECT_5_01\RELEASE\OPENGL_PROJECT_5_01.PCH
D:\ONEDRIVE\STUDIA\PROJEKTOWANIE WARSTWY WIZUALNEJ GRY\SZABLON\OPENGL_PROJECT_5_01\OPENGL_PROJECT_5_01\MESH.H
D:\ONEDRIVE\STUDIA\PROJEKTOWANIE WARSTWY WIZUALNEJ GRY\SZABLON\OPENGL_PROJECT_5_01\OPENGL_PROJECT_5_01\GLM\GLM.HPP
D:\ONEDRIVE\STUDIA\PROJEKTOWANIE WARSTWY WIZUALNEJ GRY\SZABLON\OPENGL_PROJECT_5_01\OPENGL_PROJECT_5_01\GLM\DETAIL\_FIXES.HPP
C:\PROGRAM FILES (X86)\MICROSOFT VISUAL STUDIO\2013\12.0\VC\INCLUDE\CMATH
C:\PROGRAM FILES (X86)\MICROSOFT VISUAL STUDIO\2013\12.0\VC\INCLUDE\YVALS.H
C:\PROGRAM FILES (X86)\MICROSOFT VISUAL STUDIO\2013\12.0\VC\INCLUDE\XKEYCHECK.H
C:\PROGRAM FILES (X86)\MICROSOFT VISUAL STUDIO\2013\12.0\VC\INCLUDE\CRTDEFS.H
C:\PROGRAM FILES (X86)\MICROSOFT VISUAL STUDIO\2013\12.0\VC\INCLUDE\USE_ANSI.H
C:\PROGRAM FILES (X86)\MICROSOFT VISUAL STUDIO\2013\12.0\VC\INCLUDE\MATH.H
C:\PROGRAM FILES (X86)\MICROSOFT VISUAL STUDIO\2013\12.0\VC\INCLUDE\XTGMATH.H
C:\PROGRAM FILES (X86)\MICROSOFT VISUAL STUDIO\2013\12.0\VC\INCLUDE\XTR1COMMON
C:\PROGRAM FILES (X86)\MICROSOFT VISUAL STUDIO\2013\12.0\VC\INCLUDE\CLIMITS
C:\PROGRAM FILES (X86)\MICROSOFT VISUAL STUDIO\2013\12.0\VC\INCLUDE\LIMITS.H
C:\PROGRAM FILES (X86)\MICROSOFT VISUAL STUDIO\2013\12.0\VC\INCLUDE\CFLOAT
C:\PROGRAM FILES (X86)\MICROSOFT VISUAL STUDIO\2013\12.0\VC\INCLUDE\FLOAT.H
C:\PROGRAM FILES (X86)\MICROSOFT VISUAL STUDIO\2013\12.0\VC\INCLUDE\CRTWRN.H
C:\PROGRAM FILES (X86)\MICROSOFT VISUAL STUDIO\2013\12.0\VC\INCLUDE\LIMITS
C:\PROGRAM FILES (X86)\MICROSOFT VISUAL STUDIO\2013\12.0\VC\INCLUDE\YMATH.H
C:\PROGRAM FILES (X86)\MICROSOFT VISUAL STUDIO\2013\12.0\VC\INCLUDE\CWCHAR
C:\PROGRAM FILES (X86)\MICROSOFT VISUAL STUDIO\2013\12.0\VC\INCLUDE\XSTDDEF
C:\PROGRAM FILES (X86)\MICROSOFT VISUAL STUDIO\2013\12.0\VC\INCLUDE\STDLIB.H
C:\PROGRAM FILES (X86)\MICROSOFT VISUAL STUDIO\2013\12.0\VC\INCLUDE\CSTDDEF
C:\PROGRAM FILES (X86)\MICROSOFT VISUAL STUDIO\2013\12.0\VC\INCLUDE\STDDEF.H
C:\PROGRAM FILES (X86)\MICROSOFT VISUAL STUDIO\2013\12.0\VC\INCLUDE\INITIALIZER_LIST
C:\PROGRAM FILES (X86)\MICROSOFT VISUAL STUDIO\2013\12.0\VC\INCLUDE\CASSERT
C:\PROGRAM FILES (X86)\MICROSOFT VISUAL STUDIO\2013\12.0\VC\INCLUDE\ASSERT.H
D:\ONEDRIVE\STUDIA\PROJEKTOWANIE WARSTWY WIZUALNEJ GRY\SZABLON\OPENGL_PROJECT_5_01\OPENGL_PROJECT_5_01\GLM\FWD.HPP
D:\ONEDRIVE\STUDIA\PROJEKTOWANIE WARSTWY WIZUALNEJ GRY\SZABLON\OPENGL_PROJECT_5_01\OPENGL_PROJECT_5_01\GLM\DETAIL\TYPE_INT.HPP
D:\ONEDRIVE\STUDIA\PROJEKTOWANIE WARSTWY WIZUALNEJ GRY\SZABLON\OPENGL_PROJECT_5_01\OPENGL_PROJECT_5_01\GLM\DETAIL\SETUP.HPP
C:\PROGRAM FILES (X86)\MICROSOFT VISUAL STUDIO\2013\12.0\VC\INCLUDE\EMMINTRIN.H
C:\PROGRAM FILES (X86)\MICROSOFT VISUAL STUDIO\2013\12.0\VC\INCLUDE\XMMINTRIN.H
C:\PROGRAM FILES (X86)\MICROSOFT VISUAL STUDIO\2013\12.0\VC\INCLUDE\MMINTRIN.H
C:\PROGRAM FILES (X86)\MICROSOFT VISUAL STUDIO\2013\12.0\VC\INCLUDE\MALLOC.H
C:\PROGRAM FILES (X86)\MICROSOFT VISUAL STUDIO\2013\12.0\VC\INCLUDE\TYPE_TRAITS
C:\PROGRAM FILES (X86)\MICROSOFT VISUAL STUDIO\2013\12.0\VC\INCLUDE\XREFWRAP
C:\PROGRAM FILES (X86)\MICROSOFT VISUAL STUDIO\2013\12.0\VC\INCLUDE\CSTDINT
C:\PROGRAM FILES (X86)\MICROSOFT VISUAL STUDIO\2013\12.0\VC\INCLUDE\STDINT.H
D:\ONEDRIVE\STUDIA\PROJEKTOWANIE WARSTWY WIZUALNEJ GRY\SZABLON\OPENGL_PROJECT_5_01\OPENGL_PROJECT_5_01\GLM\DETAIL\TYPE_FLOAT.HPP
D:\ONEDRIVE\STUDIA\PROJEKTOWANIE WARSTWY WIZUALNEJ GRY\SZABLON\OPENGL_PROJECT_5_01\OPENGL_PROJECT_5_01\GLM\DETAIL\TYPE_VEC.HPP
D:\ONEDRIVE\STUDIA\PROJEKTOWANIE WARSTWY WIZUALNEJ GRY\SZABLON\OPENGL_PROJECT_5_01\OPENGL_PROJECT_5_01\GLM\DETAIL\PRECISION.HPP
D:\ONEDRIVE\STUDIA\PROJEKTOWANIE WARSTWY WIZUALNEJ GRY\SZABLON\OPENGL_PROJECT_5_01\OPENGL_PROJECT_5_01\GLM\DETAIL\TYPE_MAT.HPP
D:\ONEDRIVE\STUDIA\PROJEKTOWANIE WARSTWY WIZUALNEJ GRY\SZABLON\OPENGL_PROJECT_5_01\OPENGL_PROJECT_5_01\GLM\VEC2.HPP
D:\ONEDRIVE\STUDIA\PROJEKTOWANIE WARSTWY WIZUALNEJ GRY\SZABLON\OPENGL_PROJECT_5_01\OPENGL_PROJECT_5_01\GLM\DETAIL\TYPE_VEC2.HPP
D:\ONEDRIVE\STUDIA\PROJEKTOWANIE WARSTWY WIZUALNEJ GRY\SZABLON\OPENGL_PROJECT_5_01\OPENGL_PROJECT_5_01\GLM\DETAIL\TYPE_VEC2.INL
D:\ONEDRIVE\STUDIA\PROJEKTOWANIE WARSTWY WIZUALNEJ GRY\SZABLON\OPENGL_PROJECT_5_01\OPENGL_PROJECT_5_01\GLM\VEC3.HPP
D:\ONEDRIVE\STUDIA\PROJEKTOWANIE WARSTWY WIZUALNEJ GRY\SZABLON\OPENGL_PROJECT_5_01\OPENGL_PROJECT_5_01\GLM\DETAIL\TYPE_VEC3.HPP
D:\ONEDRIVE\STUDIA\PROJEKTOWANIE WARSTWY WIZUALNEJ GRY\SZABLON\OPENGL_PROJECT_5_01\OPENGL_PROJECT_5_01\GLM\DETAIL\TYPE_VEC3.INL
D:\ONEDRIVE\STUDIA\PROJEKTOWANIE WARSTWY WIZUALNEJ GRY\SZABLON\OPENGL_PROJECT_5_01\OPENGL_PROJECT_5_01\GLM\VEC4.HPP
D:\ONEDRIVE\STUDIA\PROJEKTOWANIE WARSTWY WIZUALNEJ GRY\SZABLON\OPENGL_PROJECT_5_01\OPENGL_PROJECT_5_01\GLM\DETAIL\TYPE_VEC4.HPP
D:\ONEDRIVE\STUDIA\PROJEKTOWANIE WARSTWY WIZUALNEJ GRY\SZABLON\OPENGL_PROJECT_5_01\OPENGL_PROJECT_5_01\GLM\DETAIL\TYPE_VEC4.INL
D:\ONEDRIVE\STUDIA\PROJEKTOWANIE WARSTWY WIZUALNEJ GRY\SZABLON\OPENGL_PROJECT_5_01\OPENGL_PROJECT_5_01\GLM\DETAIL\TYPE_VEC4_SSE2.INL
D:\ONEDRIVE\STUDIA\PROJEKTOWANIE WARSTWY WIZUALNEJ GRY\SZABLON\OPENGL_PROJECT_5_01\OPENGL_PROJECT_5_01\GLM\MAT2X2.HPP
D:\ONEDRIVE\STUDIA\PROJEKTOWANIE WARSTWY WIZUALNEJ GRY\SZABLON\OPENGL_PROJECT_5_01\OPENGL_PROJECT_5_01\GLM\DETAIL\TYPE_MAT2X2.HPP
D:\ONEDRIVE\STUDIA\PROJEKTOWANIE WARSTWY WIZUALNEJ GRY\SZABLON\OPENGL_PROJECT_5_01\OPENGL_PROJECT_5_01\GLM\DETAIL\TYPE_MAT2X2.INL
D:\ONEDRIVE\STUDIA\PROJEKTOWANIE WARSTWY WIZUALNEJ GRY\SZABLON\OPENGL_PROJECT_5_01\OPENGL_PROJECT_5_01\GLM\MAT2X3.HPP
D:\ONEDRIVE\STUDIA\PROJEKTOWANIE WARSTWY WIZUALNEJ GRY\SZABLON\OPENGL_PROJECT_5_01\OPENGL_PROJECT_5_01\GLM\DETAIL\TYPE_MAT2X3.HPP
D:\ONEDRIVE\STUDIA\PROJEKTOWANIE WARSTWY WIZUALNEJ GRY\SZABLON\OPENGL_PROJECT_5_01\OPENGL_PROJECT_5_01\GLM\DETAIL\TYPE_MAT2X3.INL
D:\ONEDRIVE\STUDIA\PROJEKTOWANIE WARSTWY WIZUALNEJ GRY\SZABLON\OPENGL_PROJECT_5_01\OPENGL_PROJECT_5_01\GLM\MAT2X4.HPP
D:\ONEDRIVE\STUDIA\PROJEKTOWANIE WARSTWY WIZUALNEJ GRY\SZABLON\OPENGL_PROJECT_5_01\OPENGL_PROJECT_5_01\GLM\DETAIL\TYPE_MAT2X4.HPP
D:\ONEDRIVE\STUDIA\PROJEKTOWANIE WARSTWY WIZUALNEJ GRY\SZABLON\OPENGL_PROJECT_5_01\OPENGL_PROJECT_5_01\GLM\DETAIL\TYPE_MAT2X4.INL
D:\ONEDRIVE\STUDIA\PROJEKTOWANIE WARSTWY WIZUALNEJ GRY\SZABLON\OPENGL_PROJECT_5_01\OPENGL_PROJECT_5_01\GLM\MAT3X2.HPP
D:\ONEDRIVE\STUDIA\PROJEKTOWANIE WARSTWY WIZUALNEJ GRY\SZABLON\OPENGL_PROJECT_5_01\OPENGL_PROJECT_5_01\GLM\DETAIL\TYPE_MAT3X2.HPP
D:\ONEDRIVE\STUDIA\PROJEKTOWANIE WARSTWY WIZUALNEJ GRY\SZABLON\OPENGL_PROJECT_5_01\OPENGL_PROJECT_5_01\GLM\DETAIL\TYPE_MAT3X2.INL
D:\ONEDRIVE\STUDIA\PROJEKTOWANIE WARSTWY WIZUALNEJ GRY\SZABLON\OPENGL_PROJECT_5_01\OPENGL_PROJECT_5_01\GLM\MAT3X3.HPP
D:\ONEDRIVE\STUDIA\PROJEKTOWANIE WARSTWY WIZUALNEJ GRY\SZABLON\OPENGL_PROJECT_5_01\OPENGL_PROJECT_5_01\GLM\DETAIL\TYPE_MAT3X3.HPP
D:\ONEDRIVE\STUDIA\PROJEKTOWANIE WARSTWY WIZUALNEJ GRY\SZABLON\OPENGL_PROJECT_5_01\OPENGL_PROJECT_5_01\GLM\DETAIL\TYPE_MAT3X3.INL
D:\ONEDRIVE\STUDIA\PROJEKTOWANIE WARSTWY WIZUALNEJ GRY\SZABLON\OPENGL_PROJECT_5_01\OPENGL_PROJECT_5_01\GLM\MAT3X4.HPP
D:\ONEDRIVE\STUDIA\PROJEKTOWANIE WARSTWY WIZUALNEJ GRY\SZABLON\OPENGL_PROJECT_5_01\OPENGL_PROJECT_5_01\GLM\DETAIL\TYPE_MAT3X4.HPP
D:\ONEDRIVE\STUDIA\PROJEKTOWANIE WARSTWY WIZUALNEJ GRY\SZABLON\OPENGL_PROJECT_5_01\OPENGL_PROJECT_5_01\GLM\DETAIL\TYPE_MAT3X4.INL
D:\ONEDRIVE\STUDIA\PROJEKTOWANIE WARSTWY WIZUALNEJ GRY\SZABLON\OPENGL_PROJECT_5_01\OPENGL_PROJECT_5_01\GLM\MAT4X2.HPP
D:\ONEDRIVE\STUDIA\PROJEKTOWANIE WARSTWY WIZUALNEJ GRY\SZABLON\OPENGL_PROJECT_5_01\OPENGL_PROJECT_5_01\GLM\DETAIL\TYPE_MAT4X2.HPP
D:\ONEDRIVE\STUDIA\PROJEKTOWANIE WARSTWY WIZUALNEJ GRY\SZABLON\OPENGL_PROJECT_5_01\OPENGL_PROJECT_5_01\GLM\DETAIL\TYPE_MAT4X2.INL
D:\ONEDRIVE\STUDIA\PROJEKTOWANIE WARSTWY WIZUALNEJ GRY\SZABLON\OPENGL_PROJECT_5_01\OPENGL_PROJECT_5_01\GLM\MAT4X3.HPP
D:\ONEDRIVE\STUDIA\PROJEKTOWANIE WARSTWY WIZUALNEJ GRY\SZABLON\OPENGL_PROJECT_5_01\OPENGL_PROJECT_5_01\GLM\DETAIL\TYPE_MAT4X3.HPP
D:\ONEDRIVE\STUDIA\PROJEKTOWANIE WARSTWY WIZUALNEJ GRY\SZABLON\OPENGL_PROJECT_5_01\OPENGL_PROJECT_5_01\GLM\DETAIL\TYPE_MAT4X3.INL
D:\ONEDRIVE\STUDIA\PROJEKTOWANIE WARSTWY WIZUALNEJ GRY\SZABLON\OPENGL_PROJECT_5_01\OPENGL_PROJECT_5_01\GLM\MAT4X4.HPP
D:\ONEDRIVE\STUDIA\PROJEKTOWANIE WARSTWY WIZUALNEJ GRY\SZABLON\OPENGL_PROJECT_5_01\OPENGL_PROJECT_5_01\GLM\DETAIL\TYPE_MAT4X4.HPP
D:\ONEDRIVE\STUDIA\PROJEKTOWANIE WARSTWY WIZUALNEJ GRY\SZABLON\OPENGL_PROJECT_5_01\OPENGL_PROJECT_5_01\GLM\DETAIL\TYPE_MAT4X4.INL
D:\ONEDRIVE\STUDIA\PROJEKTOWANIE WARSTWY WIZUALNEJ GRY\SZABLON\OPENGL_PROJECT_5_01\OPENGL_PROJECT_5_01\GLM\TRIGONOMETRIC.HPP
D:\ONEDRIVE\STUDIA\PROJEKTOWANIE WARSTWY WIZUALNEJ GRY\SZABLON\OPENGL_PROJECT_5_01\OPENGL_PROJECT_5_01\GLM\DETAIL\FUNC_TRIGONOMETRIC.HPP
D:\ONEDRIVE\STUDIA\PROJEKTOWANIE WARSTWY WIZUALNEJ GRY\SZABLON\OPENGL_PROJECT_5_01\OPENGL_PROJECT_5_01\GLM\DETAIL\FUNC_TRIGONOMETRIC.INL
D:\ONEDRIVE\STUDIA\PROJEKTOWANIE WARSTWY WIZUALNEJ GRY\SZABLON\OPENGL_PROJECT_5_01\OPENGL_PROJECT_5_01\GLM\DETAIL\_VECTORIZE.HPP
D:\ONEDRIVE\STUDIA\PROJEKTOWANIE WARSTWY WIZUALNEJ GRY\SZABLON\OPENGL_PROJECT_5_01\OPENGL_PROJECT_5_01\GLM\DETAIL\TYPE_VEC1.HPP
D:\ONEDRIVE\STUDIA\PROJEKTOWANIE WARSTWY WIZUALNEJ GRY\SZABLON\OPENGL_PROJECT_5_01\OPENGL_PROJECT_5_01\GLM\DETAIL\TYPE_VEC1.INL
D:\ONEDRIVE\STUDIA\PROJEKTOWANIE WARSTWY WIZUALNEJ GRY\SZABLON\OPENGL_PROJECT_5_01\OPENGL_PROJECT_5_01\GLM\EXPONENTIAL.HPP
D:\ONEDRIVE\STUDIA\PROJEKTOWANIE WARSTWY WIZUALNEJ GRY\SZABLON\OPENGL_PROJECT_5_01\OPENGL_PROJECT_5_01\GLM\DETAIL\FUNC_EXPONENTIAL.HPP
D:\ONEDRIVE\STUDIA\PROJEKTOWANIE WARSTWY WIZUALNEJ GRY\SZABLON\OPENGL_PROJECT_5_01\OPENGL_PROJECT_5_01\GLM\DETAIL\FUNC_EXPONENTIAL.INL
D:\ONEDRIVE\STUDIA\PROJEKTOWANIE WARSTWY WIZUALNEJ GRY\SZABLON\OPENGL_PROJECT_5_01\OPENGL_PROJECT_5_01\GLM\DETAIL\FUNC_VECTOR_RELATIONAL.HPP
D:\ONEDRIVE\STUDIA\PROJEKTOWANIE WARSTWY WIZUALNEJ GRY\SZABLON\OPENGL_PROJECT_5_01\OPENGL_PROJECT_5_01\GLM\DETAIL\FUNC_VECTOR_RELATIONAL.INL
D:\ONEDRIVE\STUDIA\PROJEKTOWANIE WARSTWY WIZUALNEJ GRY\SZABLON\OPENGL_PROJECT_5_01\OPENGL_PROJECT_5_01\GLM\COMMON.HPP
D:\ONEDRIVE\STUDIA\PROJEKTOWANIE WARSTWY WIZUALNEJ GRY\SZABLON\OPENGL_PROJECT_5_01\OPENGL_PROJECT_5_01\GLM\DETAIL\FUNC_COMMON.HPP
D:\ONEDRIVE\STUDIA\PROJEKTOWANIE WARSTWY WIZUALNEJ GRY\SZABLON\OPENGL_PROJECT_5_01\OPENGL_PROJECT_5_01\GLM\DETAIL\FUNC_COMMON.INL
D:\ONEDRIVE\STUDIA\PROJEKTOWANIE WARSTWY WIZUALNEJ GRY\SZABLON\OPENGL_PROJECT_5_01\OPENGL_PROJECT_5_01\GLM\PACKING.HPP
D:\ONEDRIVE\STUDIA\PROJEKTOWANIE WARSTWY WIZUALNEJ GRY\SZABLON\OPENGL_PROJECT_5_01\OPENGL_PROJECT_5_01\GLM\DETAIL\FUNC_PACKING.HPP
D:\ONEDRIVE\STUDIA\PROJEKTOWANIE WARSTWY WIZUALNEJ GRY\SZABLON\OPENGL_PROJECT_5_01\OPENGL_PROJECT_5_01\GLM\DETAIL\FUNC_PACKING.INL
D:\ONEDRIVE\STUDIA\PROJEKTOWANIE WARSTWY WIZUALNEJ GRY\SZABLON\OPENGL_PROJECT_5_01\OPENGL_PROJECT_5_01\GLM\DETAIL\TYPE_HALF.HPP
D:\ONEDRIVE\STUDIA\PROJEKTOWANIE WARSTWY WIZUALNEJ GRY\SZABLON\OPENGL_PROJECT_5_01\OPENGL_PROJECT_5_01\GLM\DETAIL\TYPE_HALF.INL
D:\ONEDRIVE\STUDIA\PROJEKTOWANIE WARSTWY WIZUALNEJ GRY\SZABLON\OPENGL_PROJECT_5_01\OPENGL_PROJECT_5_01\GLM\GEOMETRIC.HPP
D:\ONEDRIVE\STUDIA\PROJEKTOWANIE WARSTWY WIZUALNEJ GRY\SZABLON\OPENGL_PROJECT_5_01\OPENGL_PROJECT_5_01\GLM\DETAIL\FUNC_GEOMETRIC.HPP
D:\ONEDRIVE\STUDIA\PROJEKTOWANIE WARSTWY WIZUALNEJ GRY\SZABLON\OPENGL_PROJECT_5_01\OPENGL_PROJECT_5_01\GLM\DETAIL\FUNC_GEOMETRIC.INL
D:\ONEDRIVE\STUDIA\PROJEKTOWANIE WARSTWY WIZUALNEJ GRY\SZABLON\OPENGL_PROJECT_5_01\OPENGL_PROJECT_5_01\GLM\MATRIX.HPP
D:\ONEDRIVE\STUDIA\PROJEKTOWANIE WARSTWY WIZUALNEJ GRY\SZABLON\OPENGL_PROJECT_5_01\OPENGL_PROJECT_5_01\GLM\DETAIL\FUNC_MATRIX.HPP
D:\ONEDRIVE\STUDIA\PROJEKTOWANIE WARSTWY WIZUALNEJ GRY\SZABLON\OPENGL_PROJECT_5_01\OPENGL_PROJECT_5_01\GLM\DETAIL\FUNC_MATRIX.INL
D:\ONEDRIVE\STUDIA\PROJEKTOWANIE WARSTWY WIZUALNEJ GRY\SZABLON\OPENGL_PROJECT_5_01\OPENGL_PROJECT_5_01\GLM\VECTOR_RELATIONAL.HPP
D:\ONEDRIVE\STUDIA\PROJEKTOWANIE WARSTWY WIZUALNEJ GRY\SZABLON\OPENGL_PROJECT_5_01\OPENGL_PROJECT_5_01\GLM\INTEGER.HPP
D:\ONEDRIVE\STUDIA\PROJEKTOWANIE WARSTWY WIZUALNEJ GRY\SZABLON\OPENGL_PROJECT_5_01\OPENGL_PROJECT_5_01\GLM\DETAIL\FUNC_INTEGER.HPP
D:\ONEDRIVE\STUDIA\PROJEKTOWANIE WARSTWY WIZUALNEJ GRY\SZABLON\OPENGL_PROJECT_5_01\OPENGL_PROJECT_5_01\GLM\DETAIL\FUNC_INTEGER.INL
C:\PROGRAM FILES (X86)\MICROSOFT VISUAL STUDIO\2013\12.0\VC\INCLUDE\INTRIN.H
C:\PROGRAM FILES (X86)\MICROSOFT VISUAL STUDIO\2013\12.0\VC\INCLUDE\SETJMP.H
C:\PROGRAM FILES (X86)\MICROSOFT VISUAL STUDIO\2013\12.0\VC\INCLUDE\IMMINTRIN.H
C:\PROGRAM FILES (X86)\MICROSOFT VISUAL STUDIO\2013\12.0\VC\INCLUDE\WMMINTRIN.H
C:\PROGRAM FILES (X86)\MICROSOFT VISUAL STUDIO\2013\12.0\VC\INCLUDE\NMMINTRIN.H
C:\PROGRAM FILES (X86)\MICROSOFT VISUAL STUDIO\2013\12.0\VC\INCLUDE\SMMINTRIN.H
C:\PROGRAM FILES (X86)\MICROSOFT VISUAL STUDIO\2013\12.0\VC\INCLUDE\TMMINTRIN.H
C:\PROGRAM FILES (X86)\MICROSOFT VISUAL STUDIO\2013\12.0\VC\INCLUDE\PMMINTRIN.H
C:\PROGRAM FILES (X86)\MICROSOFT VISUAL STUDIO\2013\12.0\VC\INCLUDE\AMMINTRIN.H
C:\PROGRAM FILES (X86)\MICROSOFT VISUAL STUDIO\2013\12.0\VC\INCLUDE\MM3DNOW.H
D:\ONEDRIVE\STUDIA\PROJEKTOWANIE WARSTWY WIZUALNEJ GRY\SZABLON\OPENGL_PROJECT_5_01\OPENGL_PROJECT_5_01\GLM\GTX\TRANSFORM.HPP
D:\ONEDRIVE\STUDIA\PROJEKTOWANIE WARSTWY WIZUALNEJ GRY\SZABLON\OPENGL_PROJECT_5_01\OPENGL_PROJECT_5_01\GLM\GTC\MATRIX_TRANSFORM.HPP
D:\ONEDRIVE\STUDIA\PROJEKTOWANIE WARSTWY WIZUALNEJ GRY\SZABLON\OPENGL_PROJECT_5_01\OPENGL_PROJECT_5_01\GLM\GTC\CONSTANTS.HPP
D:\ONEDRIVE\STUDIA\PROJEKTOWANIE WARSTWY WIZUALNEJ GRY\SZABLON\OPENGL_PROJECT_5_01\OPENGL_PROJECT_5_01\GLM\GTC\CONSTANTS.INL
D:\ONEDRIVE\STUDIA\PROJEKTOWANIE WARSTWY WIZUALNEJ GRY\SZABLON\OPENGL_PROJECT_5_01\OPENGL_PROJECT_5_01\GLM\GTC\MATRIX_TRANSFORM.INL
D:\ONEDRIVE\STUDIA\PROJEKTOWANIE WARSTWY WIZUALNEJ GRY\SZABLON\OPENGL_PROJECT_5_01\OPENGL_PROJECT_5_01\GLM\GTX\TRANSFORM.INL
D:\ONEDRIVE\STUDIA\PROJEKTOWANIE WARSTWY WIZUALNEJ GRY\SZABLON\OPENGL_PROJECT_5_01\OPENGL_PROJECT_5_01\GL3W.H
D:\ONEDRIVE\STUDIA\PROJEKTOWANIE WARSTWY WIZUALNEJ GRY\SZABLON\OPENGL_PROJECT_5_01\OPENGL_PROJECT_5_01\GLCOREARB.H
C:\PROGRAM FILES (X86)\WINDOWS KITS\8.1\INCLUDE\UM\WINDOWS.H
C:\PROGRAM FILES (X86)\WINDOWS KITS\8.1\INCLUDE\SHARED\WINAPIFAMILY.H
C:\PROGRAM FILES (X86)\MICROSOFT VISUAL STUDIO\2013\12.0\VC\INCLUDE\EXCPT.H
C:\PROGRAM FILES (X86)\MICROSOFT VISUAL STUDIO\2013\12.0\VC\INCLUDE\STDARG.H
C:\PROGRAM FILES (X86)\WINDOWS KITS\8.1\INCLUDE\SHARED\WINDEF.H
C:\PROGRAM FILES (X86)\WINDOWS KITS\8.1\INCLUDE\SHARED\MINWINDEF.H
C:\PROGRAM FILES (X86)\WINDOWS KITS\8.1\INCLUDE\SHARED\SPECSTRINGS.H
C:\PROGRAM FILES (X86)\WINDOWS KITS\8.1\INCLUDE\SHARED\SPECSTRINGS_STRICT.H
C:\PROGRAM FILES (X86)\WINDOWS KITS\8.1\INCLUDE\SHARED\SPECSTRINGS_UNDEF.H
C:\PROGRAM FILES (X86)\WINDOWS KITS\8.1\INCLUDE\SHARED\DRIVERSPECS.H
C:\PROGRAM FILES (X86)\WINDOWS KITS\8.1\INCLUDE\SHARED\SDV_DRIVERSPECS.H
C:\PROGRAM FILES (X86)\WINDOWS KITS\8.1\INCLUDE\UM\WINNT.H
C:\PROGRAM FILES (X86)\MICROSOFT VISUAL STUDIO\2013\12.0\VC\INCLUDE\CTYPE.H
C:\PROGRAM FILES (X86)\WINDOWS KITS\8.1\INCLUDE\SHARED\KERNELSPECS.H
C:\PROGRAM FILES (X86)\WINDOWS KITS\8.1\INCLUDE\SHARED\BASETSD.H
C:\PROGRAM FILES (X86)\WINDOWS KITS\8.1\INCLUDE\SHARED\GUIDDEF.H
C:\PROGRAM FILES (X86)\MICROSOFT VISUAL STUDIO\2013\12.0\VC\INCLUDE\STRING.H
C:\PROGRAM FILES (X86)\WINDOWS KITS\8.1\INCLUDE\SHARED\PSHPACK4.H
C:\PROGRAM FILES (X86)\WINDOWS KITS\8.1\INCLUDE\SHARED\POPPACK.H
C:\PROGRAM FILES (X86)\WINDOWS KITS\8.1\INCLUDE\SHARED\PSHPACK2.H
C:\PROGRAM FILES (X86)\WINDOWS KITS\8.1\INCLUDE\SHARED\PSHPACK8.H
C:\PROGRAM FILES (X86)\WINDOWS KITS\8.1\INCLUDE\SHARED\APISET.H
C:\PROGRAM FILES (X86)\WINDOWS KITS\8.1\INCLUDE\SHARED\KTMTYPES.H
C:\PROGRAM FILES (X86)\WINDOWS KITS\8.1\INCLUDE\UM\WINBASE.H
C:\PROGRAM FILES (X86)\WINDOWS KITS\8.1\INCLUDE\SHARED\APISETCCONV.H
C:\PROGRAM FILES (X86)\WINDOWS KITS\8.1\INCLUDE\UM\MINWINBASE.H
C:\PROGRAM FILES (X86)\WINDOWS KITS\8.1\INCLUDE\UM\PROCESSENV.H
C:\PROGRAM FILES (X86)\WINDOWS KITS\8.1\INCLUDE\UM\FILEAPI.H
C:\PROGRAM FILES (X86)\WINDOWS KITS\8.1\INCLUDE\UM\DEBUGAPI.H
C:\PROGRAM FILES (X86)\WINDOWS KITS\8.1\INCLUDE\UM\UTILAPISET.H
C:\PROGRAM FILES (X86)\WINDOWS KITS\8.1\INCLUDE\UM\HANDLEAPI.H
C:\PROGRAM FILES (X86)\WINDOWS KITS\8.1\INCLUDE\UM\ERRHANDLINGAPI.H
C:\PROGRAM FILES (X86)\WINDOWS KITS\8.1\INCLUDE\UM\FIBERSAPI.H
C:\PROGRAM FILES (X86)\WINDOWS KITS\8.1\INCLUDE\UM\NAMEDPIPEAPI.H
C:\PROGRAM FILES (X86)\WINDOWS KITS\8.1\INCLUDE\UM\PROFILEAPI.H
C:\PROGRAM FILES (X86)\WINDOWS KITS\8.1\INCLUDE\UM\HEAPAPI.H
C:\PROGRAM FILES (X86)\WINDOWS KITS\8.1\INCLUDE\UM\IOAPISET.H
C:\PROGRAM FILES (X86)\WINDOWS KITS\8.1\INCLUDE\UM\SYNCHAPI.H
C:\PROGRAM FILES (X86)\WINDOWS KITS\8.1\INCLUDE\UM\INTERLOCKEDAPI.H
C:\PROGRAM FILES (X86)\WINDOWS KITS\8.1\INCLUDE\UM\PROCESSTHREADSAPI.H
C:\PROGRAM FILES (X86)\WINDOWS KITS\8.1\INCLUDE\UM\SYSINFOAPI.H
C:\PROGRAM FILES (X86)\WINDOWS KITS\8.1\INCLUDE\UM\MEMORYAPI.H
C:\PROGRAM FILES (X86)\WINDOWS KITS\8.1\INCLUDE\UM\THREADPOOLLEGACYAPISET.H
C:\PROGRAM FILES (X86)\WINDOWS KITS\8.1\INCLUDE\UM\THREADPOOLAPISET.H
C:\PROGRAM FILES (X86)\WINDOWS KITS\8.1\INCLUDE\UM\BEMAPISET.H
C:\PROGRAM FILES (X86)\WINDOWS KITS\8.1\INCLUDE\UM\JOBAPI.H
C:\PROGRAM FILES (X86)\WINDOWS KITS\8.1\INCLUDE\UM\WOW64APISET.H
C:\PROGRAM FILES (X86)\WINDOWS KITS\8.1\INCLUDE\UM\LIBLOADERAPI.H
C:\PROGRAM FILES (X86)\WINDOWS KITS\8.1\INCLUDE\UM\SECURITYBASEAPI.H
C:\PROGRAM FILES (X86)\WINDOWS KITS\8.1\INCLUDE\UM\NAMESPACEAPI.H
C:\PROGRAM FILES (X86)\WINDOWS KITS\8.1\INCLUDE\UM\SYSTEMTOPOLOGYAPI.H
C:\PROGRAM FILES (X86)\WINDOWS KITS\8.1\INCLUDE\UM\PROCESSTOPOLOGYAPI.H
C:\PROGRAM FILES (X86)\WINDOWS KITS\8.1\INCLUDE\UM\SECURITYAPPCONTAINER.H
C:\PROGRAM FILES (X86)\WINDOWS KITS\8.1\INCLUDE\UM\REALTIMEAPISET.H
C:\PROGRAM FILES (X86)\WINDOWS KITS\8.1\INCLUDE\SHARED\WINERROR.H
C:\PROGRAM FILES (X86)\WINDOWS KITS\8.1\INCLUDE\UM\TIMEZONEAPI.H
C:\PROGRAM FILES (X86)\WINDOWS KITS\8.1\INCLUDE\UM\WINGDI.H
C:\PROGRAM FILES (X86)\WINDOWS KITS\8.1\INCLUDE\SHARED\PSHPACK1.H
C:\PROGRAM FILES (X86)\WINDOWS KITS\8.1\INCLUDE\UM\WINUSER.H
C:\PROGRAM FILES (X86)\WINDOWS KITS\8.1\INCLUDE\SHARED\TVOUT.H
C:\PROGRAM FILES (X86)\WINDOWS KITS\8.1\INCLUDE\UM\WINNLS.H
C:\PROGRAM FILES (X86)\WINDOWS KITS\8.1\INCLUDE\UM\DATETIMEAPI.H
C:\PROGRAM FILES (X86)\WINDOWS KITS\8.1\INCLUDE\UM\STRINGAPISET.H
C:\PROGRAM FILES (X86)\WINDOWS KITS\8.1\INCLUDE\UM\WINCON.H
C:\PROGRAM FILES (X86)\WINDOWS KITS\8.1\INCLUDE\UM\CONSOLEAPI.H
C:\PROGRAM FILES (X86)\WINDOWS KITS\8.1\INCLUDE\UM\WINVER.H
C:\PROGRAM FILES (X86)\WINDOWS KITS\8.1\INCLUDE\UM\VERRSRC.H
C:\PROGRAM FILES (X86)\WINDOWS KITS\8.1\INCLUDE\UM\WINREG.H
C:\PROGRAM FILES (X86)\WINDOWS KITS\8.1\INCLUDE\UM\REASON.H
C:\PROGRAM FILES (X86)\WINDOWS KITS\8.1\INCLUDE\UM\WINNETWK.H
C:\PROGRAM FILES (X86)\WINDOWS KITS\8.1\INCLUDE\SHARED\WNNC.H
C:\PROGRAM FILES (X86)\WINDOWS KITS\8.1\INCLUDE\SHARED\STRALIGN.H
C:\PROGRAM FILES (X86)\WINDOWS KITS\8.1\INCLUDE\UM\WINSVC.H
C:\PROGRAM FILES (X86)\WINDOWS KITS\8.1\INCLUDE\UM\MCX.H
C:\PROGRAM FILES (X86)\WINDOWS KITS\8.1\INCLUDE\UM\IMM.H
C:\PROGRAM FILES (X86)\WINDOWS KITS\8.1\INCLUDE\UM\IME_CMODES.H
C:\PROGRAM FILES (X86)\MICROSOFT VISUAL STUDIO\2013\12.0\VC\INCLUDE\VECTOR
C:\PROGRAM FILES (X86)\MICROSOFT VISUAL STUDIO\2013\12.0\VC\INCLUDE\XMEMORY
C:\PROGRAM FILES (X86)\MICROSOFT VISUAL STUDIO\2013\12.0\VC\INCLUDE\XMEMORY0
C:\PROGRAM FILES (X86)\MICROSOFT VISUAL STUDIO\2013\12.0\VC\INCLUDE\CSTDLIB
C:\PROGRAM FILES (X86)\MICROSOFT VISUAL STUDIO\2013\12.0\VC\INCLUDE\NEW
C:\PROGRAM FILES (X86)\MICROSOFT VISUAL STUDIO\2013\12.0\VC\INCLUDE\EXCEPTION
C:\PROGRAM FILES (X86)\MICROSOFT VISUAL STUDIO\2013\12.0\VC\INCLUDE\EH.H
C:\PROGRAM FILES (X86)\MICROSOFT VISUAL STUDIO\2013\12.0\VC\INCLUDE\XUTILITY
C:\PROGRAM FILES (X86)\MICROSOFT VISUAL STUDIO\2013\12.0\VC\INCLUDE\UTILITY
C:\PROGRAM FILES (X86)\MICROSOFT VISUAL STUDIO\2013\12.0\VC\INCLUDE\IOSFWD
C:\PROGRAM FILES (X86)\MICROSOFT VISUAL STUDIO\2013\12.0\VC\INCLUDE\CSTDIO
C:\PROGRAM FILES (X86)\MICROSOFT VISUAL STUDIO\2013\12.0\VC\INCLUDE\CSTRING
C:\PROGRAM FILES (X86)\MICROSOFT VISUAL STUDIO\2013\12.0\VC\INCLUDE\CRTDBG.H
C:\PROGRAM FILES (X86)\MICROSOFT VISUAL STUDIO\2013\12.0\VC\INCLUDE\XATOMIC0.H
C:\PROGRAM FILES (X86)\MICROSOFT VISUAL STUDIO\2013\12.0\VC\INCLUDE\STDEXCEPT
C:\PROGRAM FILES (X86)\MICROSOFT VISUAL STUDIO\2013\12.0\VC\INCLUDE\XSTRING
C:\PROGRAM FILES (X86)\MICROSOFT VISUAL STUDIO\2013\12.0\VC\INCLUDE\STRING
C:\PROGRAM FILES (X86)\MICROSOFT VISUAL STUDIO\2013\12.0\VC\INCLUDE\ITERATOR
C:\PROGRAM FILES (X86)\MICROSOFT VISUAL STUDIO\2013\12.0\VC\INCLUDE\ISTREAM
C:\PROGRAM FILES (X86)\MICROSOFT VISUAL STUDIO\2013\12.0\VC\INCLUDE\OSTREAM
C:\PROGRAM FILES (X86)\MICROSOFT VISUAL STUDIO\2013\12.0\VC\INCLUDE\IOS
C:\PROGRAM FILES (X86)\MICROSOFT VISUAL STUDIO\2013\12.0\VC\INCLUDE\XLOCNUM
C:\PROGRAM FILES (X86)\MICROSOFT VISUAL STUDIO\2013\12.0\VC\INCLUDE\STREAMBUF
C:\PROGRAM FILES (X86)\MICROSOFT VISUAL STUDIO\2013\12.0\VC\INCLUDE\XIOSBASE
C:\PROGRAM FILES (X86)\MICROSOFT VISUAL STUDIO\2013\12.0\VC\INCLUDE\XLOCALE
C:\PROGRAM FILES (X86)\MICROSOFT VISUAL STUDIO\2013\12.0\VC\INCLUDE\TYPEINFO
C:\PROGRAM FILES (X86)\MICROSOFT VISUAL STUDIO\2013\12.0\VC\INCLUDE\XLOCINFO
C:\PROGRAM FILES (X86)\MICROSOFT VISUAL STUDIO\2013\12.0\VC\INCLUDE\XLOCINFO.H
C:\PROGRAM FILES (X86)\MICROSOFT VISUAL STUDIO\2013\12.0\VC\INCLUDE\LOCALE.H
C:\PROGRAM FILES (X86)\MICROSOFT VISUAL STUDIO\2013\12.0\VC\INCLUDE\XDEBUG
C:\PROGRAM FILES (X86)\MICROSOFT VISUAL STUDIO\2013\12.0\VC\INCLUDE\XFACET
C:\PROGRAM FILES (X86)\MICROSOFT VISUAL STUDIO\2013\12.0\VC\INCLUDE\SYSTEM_ERROR
C:\PROGRAM FILES (X86)\MICROSOFT VISUAL STUDIO\2013\12.0\VC\INCLUDE\CERRNO
C:\PROGRAM FILES (X86)\MICROSOFT VISUAL STUDIO\2013\12.0\VC\INCLUDE\ERRNO.H
C:\PROGRAM FILES (X86)\MICROSOFT VISUAL STUDIO\2013\12.0\VC\INCLUDE\SHARE.H
D:\ONEDRIVE\STUDIA\PROJEKTOWANIE WARSTWY WIZUALNEJ GRY\SZABLON\OPENGL_PROJECT_5_01\OPENGL_PROJECT_5_01\SHADER.H
^D:\ONEDRIVE\STUDIA\PROJEKTOWANIE WARSTWY WIZUALNEJ GRY\SZABLON\OPENGL_PROJECT_5_01\OPENGL_PROJECT_5_01\SHADER.CPP
D:\ONEDRIVE\STUDIA\PROJEKTOWANIE WARSTWY WIZUALNEJ GRY\SZABLON\OPENGL_PROJECT_5_01\OPENGL_PROJECT_5_01\RELEASE\OPENGL_PROJECT_5_01.PCH
D:\ONEDRIVE\STUDIA\PROJEKTOWANIE WARSTWY WIZUALNEJ GRY\SZABLON\OPENGL_PROJECT_5_01\OPENGL_PROJECT_5_01\SHADER.H
C:\PROGRAM FILES (X86)\MICROSOFT VISUAL STUDIO\2013\12.0\VC\INCLUDE\STRING
C:\PROGRAM FILES (X86)\MICROSOFT VISUAL STUDIO\2013\12.0\VC\INCLUDE\ITERATOR
C:\PROGRAM FILES (X86)\MICROSOFT VISUAL STUDIO\2013\12.0\VC\INCLUDE\ISTREAM
C:\PROGRAM FILES (X86)\MICROSOFT VISUAL STUDIO\2013\12.0\VC\INCLUDE\OSTREAM
C:\PROGRAM FILES (X86)\MICROSOFT VISUAL STUDIO\2013\12.0\VC\INCLUDE\IOS
C:\PROGRAM FILES (X86)\MICROSOFT VISUAL STUDIO\2013\12.0\VC\INCLUDE\XLOCNUM
C:\PROGRAM FILES (X86)\MICROSOFT VISUAL STUDIO\2013\12.0\VC\INCLUDE\CLIMITS
C:\PROGRAM FILES (X86)\MICROSOFT VISUAL STUDIO\2013\12.0\VC\INCLUDE\YVALS.H
C:\PROGRAM FILES (X86)\MICROSOFT VISUAL STUDIO\2013\12.0\VC\INCLUDE\XKEYCHECK.H
C:\PROGRAM FILES (X86)\MICROSOFT VISUAL STUDIO\2013\12.0\VC\INCLUDE\CRTDEFS.H
C:\PROGRAM FILES (X86)\MICROSOFT VISUAL STUDIO\2013\12.0\VC\INCLUDE\USE_ANSI.H
C:\PROGRAM FILES (X86)\MICROSOFT VISUAL STUDIO\2013\12.0\VC\INCLUDE\LIMITS.H
C:\PROGRAM FILES (X86)\MICROSOFT VISUAL STUDIO\2013\12.0\VC\INCLUDE\CMATH
C:\PROGRAM FILES (X86)\MICROSOFT VISUAL STUDIO\2013\12.0\VC\INCLUDE\MATH.H
C:\PROGRAM FILES (X86)\MICROSOFT VISUAL STUDIO\2013\12.0\VC\INCLUDE\XTGMATH.H
C:\PROGRAM FILES (X86)\MICROSOFT VISUAL STUDIO\2013\12.0\VC\INCLUDE\XTR1COMMON
C:\PROGRAM FILES (X86)\MICROSOFT VISUAL STUDIO\2013\12.0\VC\INCLUDE\CSTDIO
C:\PROGRAM FILES (X86)\MICROSOFT VISUAL STUDIO\2013\12.0\VC\INCLUDE\CSTDLIB
C:\PROGRAM FILES (X86)\MICROSOFT VISUAL STUDIO\2013\12.0\VC\INCLUDE\STDLIB.H
C:\PROGRAM FILES (X86)\MICROSOFT VISUAL STUDIO\2013\12.0\VC\INCLUDE\STREAMBUF
C:\PROGRAM FILES (X86)\MICROSOFT VISUAL STUDIO\2013\12.0\VC\INCLUDE\XIOSBASE
C:\PROGRAM FILES (X86)\MICROSOFT VISUAL STUDIO\2013\12.0\VC\INCLUDE\XLOCALE
C:\PROGRAM FILES (X86)\MICROSOFT VISUAL STUDIO\2013\12.0\VC\INCLUDE\CSTRING
C:\PROGRAM FILES (X86)\MICROSOFT VISUAL STUDIO\2013\12.0\VC\INCLUDE\STRING.H
C:\PROGRAM FILES (X86)\MICROSOFT VISUAL STUDIO\2013\12.0\VC\INCLUDE\STDEXCEPT
C:\PROGRAM FILES (X86)\MICROSOFT VISUAL STUDIO\2013\12.0\VC\INCLUDE\EXCEPTION
C:\PROGRAM FILES (X86)\MICROSOFT VISUAL STUDIO\2013\12.0\VC\INCLUDE\XSTDDEF
C:\PROGRAM FILES (X86)\MICROSOFT VISUAL STUDIO\2013\12.0\VC\INCLUDE\CSTDDEF
C:\PROGRAM FILES (X86)\MICROSOFT VISUAL STUDIO\2013\12.0\VC\INCLUDE\STDDEF.H
C:\PROGRAM FILES (X86)\MICROSOFT VISUAL STUDIO\2013\12.0\VC\INCLUDE\INITIALIZER_LIST
C:\PROGRAM FILES (X86)\MICROSOFT VISUAL STUDIO\2013\12.0\VC\INCLUDE\EH.H
C:\PROGRAM FILES (X86)\MICROSOFT VISUAL STUDIO\2013\12.0\VC\INCLUDE\MALLOC.H
C:\PROGRAM FILES (X86)\MICROSOFT VISUAL STUDIO\2013\12.0\VC\INCLUDE\XSTRING
C:\PROGRAM FILES (X86)\MICROSOFT VISUAL STUDIO\2013\12.0\VC\INCLUDE\XMEMORY0
C:\PROGRAM FILES (X86)\MICROSOFT VISUAL STUDIO\2013\12.0\VC\INCLUDE\LIMITS
C:\PROGRAM FILES (X86)\MICROSOFT VISUAL STUDIO\2013\12.0\VC\INCLUDE\YMATH.H
C:\PROGRAM FILES (X86)\MICROSOFT VISUAL STUDIO\2013\12.0\VC\INCLUDE\CFLOAT
C:\PROGRAM FILES (X86)\MICROSOFT VISUAL STUDIO\2013\12.0\VC\INCLUDE\FLOAT.H
C:\PROGRAM FILES (X86)\MICROSOFT VISUAL STUDIO\2013\12.0\VC\INCLUDE\CRTWRN.H
C:\PROGRAM FILES (X86)\MICROSOFT VISUAL STUDIO\2013\12.0\VC\INCLUDE\CWCHAR
C:\PROGRAM FILES (X86)\MICROSOFT VISUAL STUDIO\2013\12.0\VC\INCLUDE\NEW
C:\PROGRAM FILES (X86)\MICROSOFT VISUAL STUDIO\2013\12.0\VC\INCLUDE\XUTILITY
C:\PROGRAM FILES (X86)\MICROSOFT VISUAL STUDIO\2013\12.0\VC\INCLUDE\UTILITY
C:\PROGRAM FILES (X86)\MICROSOFT VISUAL STUDIO\2013\12.0\VC\INCLUDE\IOSFWD
C:\PROGRAM FILES (X86)\MICROSOFT VISUAL STUDIO\2013\12.0\VC\INCLUDE\CRTDBG.H
C:\PROGRAM FILES (X86)\MICROSOFT VISUAL STUDIO\2013\12.0\VC\INCLUDE\TYPE_TRAITS
C:\PROGRAM FILES (X86)\MICROSOFT VISUAL STUDIO\2013\12.0\VC\INCLUDE\XREFWRAP
C:\PROGRAM FILES (X86)\MICROSOFT VISUAL STUDIO\2013\12.0\VC\INCLUDE\XATOMIC0.H
C:\PROGRAM FILES (X86)\MICROSOFT VISUAL STUDIO\2013\12.0\VC\INCLUDE\INTRIN.H
C:\PROGRAM FILES (X86)\MICROSOFT VISUAL STUDIO\2013\12.0\VC\INCLUDE\SETJMP.H
C:\PROGRAM FILES (X86)\MICROSOFT VISUAL STUDIO\2013\12.0\VC\INCLUDE\IMMINTRIN.H
C:\PROGRAM FILES (X86)\MICROSOFT VISUAL STUDIO\2013\12.0\VC\INCLUDE\WMMINTRIN.H
C:\PROGRAM FILES (X86)\MICROSOFT VISUAL STUDIO\2013\12.0\VC\INCLUDE\NMMINTRIN.H
C:\PROGRAM FILES (X86)\MICROSOFT VISUAL STUDIO\2013\12.0\VC\INCLUDE\SMMINTRIN.H
C:\PROGRAM FILES (X86)\MICROSOFT VISUAL STUDIO\2013\12.0\VC\INCLUDE\TMMINTRIN.H
C:\PROGRAM FILES (X86)\MICROSOFT VISUAL STUDIO\2013\12.0\VC\INCLUDE\PMMINTRIN.H
C:\PROGRAM FILES (X86)\MICROSOFT VISUAL STUDIO\2013\12.0\VC\INCLUDE\EMMINTRIN.H
C:\PROGRAM FILES (X86)\MICROSOFT VISUAL STUDIO\2013\12.0\VC\INCLUDE\XMMINTRIN.H
C:\PROGRAM FILES (X86)\MICROSOFT VISUAL STUDIO\2013\12.0\VC\INCLUDE\MMINTRIN.H
C:\PROGRAM FILES (X86)\MICROSOFT VISUAL STUDIO\2013\12.0\VC\INCLUDE\AMMINTRIN.H
C:\PROGRAM FILES (X86)\MICROSOFT VISUAL STUDIO\2013\12.0\VC\INCLUDE\MM3DNOW.H
C:\PROGRAM FILES (X86)\MICROSOFT VISUAL STUDIO\2013\12.0\VC\INCLUDE\TYPEINFO
C:\PROGRAM FILES (X86)\MICROSOFT VISUAL STUDIO\2013\12.0\VC\INCLUDE\XLOCINFO
C:\PROGRAM FILES (X86)\MICROSOFT VISUAL STUDIO\2013\12.0\VC\INCLUDE\XLOCINFO.H
C:\PROGRAM FILES (X86)\MICROSOFT VISUAL STUDIO\2013\12.0\VC\INCLUDE\CTYPE.H
C:\PROGRAM FILES (X86)\MICROSOFT VISUAL STUDIO\2013\12.0\VC\INCLUDE\LOCALE.H
C:\PROGRAM FILES (X86)\MICROSOFT VISUAL STUDIO\2013\12.0\VC\INCLUDE\XDEBUG
C:\PROGRAM FILES (X86)\MICROSOFT VISUAL STUDIO\2013\12.0\VC\INCLUDE\XFACET
C:\PROGRAM FILES (X86)\MICROSOFT VISUAL STUDIO\2013\12.0\VC\INCLUDE\SYSTEM_ERROR
C:\PROGRAM FILES (X86)\MICROSOFT VISUAL STUDIO\2013\12.0\VC\INCLUDE\CERRNO
C:\PROGRAM FILES (X86)\MICROSOFT VISUAL STUDIO\2013\12.0\VC\INCLUDE\ERRNO.H
C:\PROGRAM FILES (X86)\MICROSOFT VISUAL STUDIO\2013\12.0\VC\INCLUDE\SHARE.H
D:\ONEDRIVE\STUDIA\PROJEKTOWANIE WARSTWY WIZUALNEJ GRY\SZABLON\OPENGL_PROJECT_5_01\OPENGL_PROJECT_5_01\GL3W.H
D:\ONEDRIVE\STUDIA\PROJEKTOWANIE WARSTWY WIZUALNEJ GRY\SZABLON\OPENGL_PROJECT_5_01\OPENGL_PROJECT_5_01\GLCOREARB.H
C:\PROGRAM FILES (X86)\WINDOWS KITS\8.1\INCLUDE\UM\WINDOWS.H
C:\PROGRAM FILES (X86)\WINDOWS KITS\8.1\INCLUDE\SHARED\WINAPIFAMILY.H
C:\PROGRAM FILES (X86)\MICROSOFT VISUAL STUDIO\2013\12.0\VC\INCLUDE\EXCPT.H
C:\PROGRAM FILES (X86)\MICROSOFT VISUAL STUDIO\2013\12.0\VC\INCLUDE\STDARG.H
C:\PROGRAM FILES (X86)\WINDOWS KITS\8.1\INCLUDE\SHARED\WINDEF.H
C:\PROGRAM FILES (X86)\WINDOWS KITS\8.1\INCLUDE\SHARED\MINWINDEF.H
C:\PROGRAM FILES (X86)\WINDOWS KITS\8.1\INCLUDE\SHARED\SPECSTRINGS.H
C:\PROGRAM FILES (X86)\WINDOWS KITS\8.1\INCLUDE\SHARED\SPECSTRINGS_STRICT.H
C:\PROGRAM FILES (X86)\WINDOWS KITS\8.1\INCLUDE\SHARED\SPECSTRINGS_UNDEF.H
C:\PROGRAM FILES (X86)\WINDOWS KITS\8.1\INCLUDE\SHARED\DRIVERSPECS.H
C:\PROGRAM FILES (X86)\WINDOWS KITS\8.1\INCLUDE\SHARED\SDV_DRIVERSPECS.H
C:\PROGRAM FILES (X86)\WINDOWS KITS\8.1\INCLUDE\UM\WINNT.H
C:\PROGRAM FILES (X86)\WINDOWS KITS\8.1\INCLUDE\SHARED\KERNELSPECS.H
C:\PROGRAM FILES (X86)\WINDOWS KITS\8.1\INCLUDE\SHARED\BASETSD.H
C:\PROGRAM FILES (X86)\WINDOWS KITS\8.1\INCLUDE\SHARED\GUIDDEF.H
C:\PROGRAM FILES (X86)\WINDOWS KITS\8.1\INCLUDE\SHARED\PSHPACK4.H
C:\PROGRAM FILES (X86)\WINDOWS KITS\8.1\INCLUDE\SHARED\POPPACK.H
C:\PROGRAM FILES (X86)\WINDOWS KITS\8.1\INCLUDE\SHARED\PSHPACK2.H
C:\PROGRAM FILES (X86)\WINDOWS KITS\8.1\INCLUDE\SHARED\PSHPACK8.H
C:\PROGRAM FILES (X86)\WINDOWS KITS\8.1\INCLUDE\SHARED\APISET.H
C:\PROGRAM FILES (X86)\WINDOWS KITS\8.1\INCLUDE\SHARED\KTMTYPES.H
C:\PROGRAM FILES (X86)\WINDOWS KITS\8.1\INCLUDE\UM\WINBASE.H
C:\PROGRAM FILES (X86)\WINDOWS KITS\8.1\INCLUDE\SHARED\APISETCCONV.H
C:\PROGRAM FILES (X86)\WINDOWS KITS\8.1\INCLUDE\UM\MINWINBASE.H
C:\PROGRAM FILES (X86)\WINDOWS KITS\8.1\INCLUDE\UM\PROCESSENV.H
C:\PROGRAM FILES (X86)\WINDOWS KITS\8.1\INCLUDE\UM\FILEAPI.H
C:\PROGRAM FILES (X86)\WINDOWS KITS\8.1\INCLUDE\UM\DEBUGAPI.H
C:\PROGRAM FILES (X86)\WINDOWS KITS\8.1\INCLUDE\UM\UTILAPISET.H
C:\PROGRAM FILES (X86)\WINDOWS KITS\8.1\INCLUDE\UM\HANDLEAPI.H
C:\PROGRAM FILES (X86)\WINDOWS KITS\8.1\INCLUDE\UM\ERRHANDLINGAPI.H
C:\PROGRAM FILES (X86)\WINDOWS KITS\8.1\INCLUDE\UM\FIBERSAPI.H
C:\PROGRAM FILES (X86)\WINDOWS KITS\8.1\INCLUDE\UM\NAMEDPIPEAPI.H
C:\PROGRAM FILES (X86)\WINDOWS KITS\8.1\INCLUDE\UM\PROFILEAPI.H
C:\PROGRAM FILES (X86)\WINDOWS KITS\8.1\INCLUDE\UM\HEAPAPI.H
C:\PROGRAM FILES (X86)\WINDOWS KITS\8.1\INCLUDE\UM\IOAPISET.H
C:\PROGRAM FILES (X86)\WINDOWS KITS\8.1\INCLUDE\UM\SYNCHAPI.H
C:\PROGRAM FILES (X86)\WINDOWS KITS\8.1\INCLUDE\UM\INTERLOCKEDAPI.H
C:\PROGRAM FILES (X86)\WINDOWS KITS\8.1\INCLUDE\UM\PROCESSTHREADSAPI.H
C:\PROGRAM FILES (X86)\WINDOWS KITS\8.1\INCLUDE\UM\SYSINFOAPI.H
C:\PROGRAM FILES (X86)\WINDOWS KITS\8.1\INCLUDE\UM\MEMORYAPI.H
C:\PROGRAM FILES (X86)\WINDOWS KITS\8.1\INCLUDE\UM\THREADPOOLLEGACYAPISET.H
C:\PROGRAM FILES (X86)\WINDOWS KITS\8.1\INCLUDE\UM\THREADPOOLAPISET.H
C:\PROGRAM FILES (X86)\WINDOWS KITS\8.1\INCLUDE\UM\BEMAPISET.H
C:\PROGRAM FILES (X86)\WINDOWS KITS\8.1\INCLUDE\UM\JOBAPI.H
C:\PROGRAM FILES (X86)\WINDOWS KITS\8.1\INCLUDE\UM\WOW64APISET.H
C:\PROGRAM FILES (X86)\WINDOWS KITS\8.1\INCLUDE\UM\LIBLOADERAPI.H
C:\PROGRAM FILES (X86)\WINDOWS KITS\8.1\INCLUDE\UM\SECURITYBASEAPI.H
C:\PROGRAM FILES (X86)\WINDOWS KITS\8.1\INCLUDE\UM\NAMESPACEAPI.H
C:\PROGRAM FILES (X86)\WINDOWS KITS\8.1\INCLUDE\UM\SYSTEMTOPOLOGYAPI.H
C:\PROGRAM FILES (X86)\WINDOWS KITS\8.1\INCLUDE\UM\PROCESSTOPOLOGYAPI.H
C:\PROGRAM FILES (X86)\WINDOWS KITS\8.1\INCLUDE\UM\SECURITYAPPCONTAINER.H
C:\PROGRAM FILES (X86)\WINDOWS KITS\8.1\INCLUDE\UM\REALTIMEAPISET.H
C:\PROGRAM FILES (X86)\WINDOWS KITS\8.1\INCLUDE\SHARED\WINERROR.H
C:\PROGRAM FILES (X86)\WINDOWS KITS\8.1\INCLUDE\UM\TIMEZONEAPI.H
C:\PROGRAM FILES (X86)\WINDOWS KITS\8.1\INCLUDE\UM\WINGDI.H
C:\PROGRAM FILES (X86)\WINDOWS KITS\8.1\INCLUDE\SHARED\PSHPACK1.H
C:\PROGRAM FILES (X86)\WINDOWS KITS\8.1\INCLUDE\UM\WINUSER.H
C:\PROGRAM FILES (X86)\WINDOWS KITS\8.1\INCLUDE\SHARED\TVOUT.H
C:\PROGRAM FILES (X86)\WINDOWS KITS\8.1\INCLUDE\UM\WINNLS.H
C:\PROGRAM FILES (X86)\WINDOWS KITS\8.1\INCLUDE\UM\DATETIMEAPI.H
C:\PROGRAM FILES (X86)\WINDOWS KITS\8.1\INCLUDE\UM\STRINGAPISET.H
C:\PROGRAM FILES (X86)\WINDOWS KITS\8.1\INCLUDE\UM\WINCON.H
C:\PROGRAM FILES (X86)\WINDOWS KITS\8.1\INCLUDE\UM\CONSOLEAPI.H
C:\PROGRAM FILES (X86)\WINDOWS KITS\8.1\INCLUDE\UM\WINVER.H
C:\PROGRAM FILES (X86)\WINDOWS KITS\8.1\INCLUDE\UM\VERRSRC.H
C:\PROGRAM FILES (X86)\WINDOWS KITS\8.1\INCLUDE\UM\WINREG.H
C:\PROGRAM FILES (X86)\WINDOWS KITS\8.1\INCLUDE\UM\REASON.H
C:\PROGRAM FILES (X86)\WINDOWS KITS\8.1\INCLUDE\UM\WINNETWK.H
C:\PROGRAM FILES (X86)\WINDOWS KITS\8.1\INCLUDE\SHARED\WNNC.H
C:\PROGRAM FILES (X86)\WINDOWS KITS\8.1\INCLUDE\SHARED\STRALIGN.H
C:\PROGRAM FILES (X86)\WINDOWS KITS\8.1\INCLUDE\UM\WINSVC.H
C:\PROGRAM FILES (X86)\WINDOWS KITS\8.1\INCLUDE\UM\MCX.H
C:\PROGRAM FILES (X86)\WINDOWS KITS\8.1\INCLUDE\UM\IMM.H
C:\PROGRAM FILES (X86)\WINDOWS KITS\8.1\INCLUDE\UM\IME_CMODES.H
C:\PROGRAM FILES (X86)\MICROSOFT VISUAL STUDIO\2013\12.0\VC\INCLUDE\FSTREAM
