^D:\ONEDRIVE\STUDIA\PROJEKTOWANIE WARSTWY WIZUALNEJ GRY\SZABLON\OPENGL_PROJECT_5_02\OPENGL_PROJECT_5_01\DEBUG\ASSIMPMODEL.OBJ|D:\ONEDRIVE\STUDIA\PROJEKTOWANIE WARSTWY WIZUALNEJ GRY\SZABLON\OPENGL_PROJECT_5_02\OPENGL_PROJECT_5_01\DEBUG\CAMERA.OBJ|D:\ONEDRIVE\STUDIA\PROJEKTOWANIE WARSTWY WIZUALNEJ GRY\SZABLON\OPENGL_PROJECT_5_02\OPENGL_PROJECT_5_01\DEBUG\EVENT.OBJ|D:\ONEDRIVE\STUDIA\PROJEKTOWANIE WARSTWY WIZUALNEJ GRY\SZABLON\OPENGL_PROJECT_5_02\OPENGL_PROJECT_5_01\DEBUG\GL3W.OBJ|D:\ONEDRIVE\STUDIA\PROJEKTOWANIE WARSTWY WIZUALNEJ GRY\SZABLON\OPENGL_PROJECT_5_02\OPENGL_PROJECT_5_01\DEBUG\MAIN.OBJ|D:\ONEDRIVE\STUDIA\PROJEKTOWANIE WARSTWY WIZUALNEJ GRY\SZABLON\OPENGL_PROJECT_5_02\OPENGL_PROJECT_5_01\DEBUG\MATERIALS.OBJ|D:\ONEDRIVE\STUDIA\PROJEKTOWANIE WARSTWY WIZUALNEJ GRY\SZABLON\OPENGL_PROJECT_5_02\OPENGL_PROJECT_5_01\DEBUG\MESH.OBJ|D:\ONEDRIVE\STUDIA\PROJEKTOWANIE WARSTWY WIZUALNEJ GRY\SZABLON\OPENGL_PROJECT_5_02\OPENGL_PROJECT_5_01\DEBUG\SHADER.OBJ|D:\ONEDRIVE\STUDIA\PROJEKTOWANIE WARSTWY WIZUALNEJ GRY\SZABLON\OPENGL_PROJECT_5_02\OPENGL_PROJECT_5_01\DEBUG\STDAFX.OBJ
D:\ONEDRIVE\STUDIA\PROJEKTOWANIE WARSTWY WIZUALNEJ GRY\SZABLON\OPENGL_PROJECT_5_02\DEBUG\OPENGL_PROJECT_5_01.EXE
D:\ONEDRIVE\STUDIA\PROJEKTOWANIE WARSTWY WIZUALNEJ GRY\SZABLON\OPENGL_PROJECT_5_02\DEBUG\OPENGL_PROJECT_5_01.PDB
^D:\ONEDRIVE\STUDIA\PROJEKTOWANIE WARSTWY WIZUALNEJ GRY\ZADANIA\ZESTAW 4\ZADANIE 4\OPENGL_PROJECT_5_01\DEBUG\ASSIMPMODEL.OBJ|D:\ONEDRIVE\STUDIA\PROJEKTOWANIE WARSTWY WIZUALNEJ GRY\ZADANIA\ZESTAW 4\ZADANIE 4\OPENGL_PROJECT_5_01\DEBUG\CAMERA.OBJ|D:\ONEDRIVE\STUDIA\PROJEKTOWANIE WARSTWY WIZUALNEJ GRY\ZADANIA\ZESTAW 4\ZADANIE 4\OPENGL_PROJECT_5_01\DEBUG\EVENT.OBJ|D:\ONEDRIVE\STUDIA\PROJEKTOWANIE WARSTWY WIZUALNEJ GRY\ZADANIA\ZESTAW 4\ZADANIE 4\OPENGL_PROJECT_5_01\DEBUG\GL3W.OBJ|D:\ONEDRIVE\STUDIA\PROJEKTOWANIE WARSTWY WIZUALNEJ GRY\ZADANIA\ZESTAW 4\ZADANIE 4\OPENGL_PROJECT_5_01\DEBUG\MAIN.OBJ|D:\ONEDRIVE\STUDIA\PROJEKTOWANIE WARSTWY WIZUALNEJ GRY\ZADANIA\ZESTAW 4\ZADANIE 4\OPENGL_PROJECT_5_01\DEBUG\MATERIALS.OBJ|D:\ONEDRIVE\STUDIA\PROJEKTOWANIE WARSTWY WIZUALNEJ GRY\ZADANIA\ZESTAW 4\ZADANIE 4\OPENGL_PROJECT_5_01\DEBUG\MESH.OBJ|D:\ONEDRIVE\STUDIA\PROJEKTOWANIE WARSTWY WIZUALNEJ GRY\ZADANIA\ZESTAW 4\ZADANIE 4\OPENGL_PROJECT_5_01\DEBUG\SHADER.OBJ|D:\ONEDRIVE\STUDIA\PROJEKTOWANIE WARSTWY WIZUALNEJ GRY\ZADANIA\ZESTAW 4\ZADANIE 4\OPENGL_PROJECT_5_01\DEBUG\STDAFX.OBJ
D:\ONEDRIVE\STUDIA\PROJEKTOWANIE WARSTWY WIZUALNEJ GRY\ZADANIA\ZESTAW 4\ZADANIE 4\DEBUG\OPENGL_PROJECT_5_01.EXE
D:\ONEDRIVE\STUDIA\PROJEKTOWANIE WARSTWY WIZUALNEJ GRY\ZADANIA\ZESTAW 4\ZADANIE 4\DEBUG\OPENGL_PROJECT_5_01.PDB
