^D:\ONEDRIVE\STUDIA\PROJEKTOWANIE WARSTWY WIZUALNEJ GRY\SZABLON\OPENGL_PROJECT_5_02\OPENGL_PROJECT_5_01\STDAFX.CPP
/c /ZI /nologo /W3 /WX- /Od /Oy- /D WIN32 /D _DEBUG /D _CONSOLE /D _LIB /D _UNICODE /D UNICODE /Gm /EHsc /RTC1 /MDd /GS /fp:precise /Zc:wchar_t /Zc:forScope /Yc"stdafx.h" /Fp"DEBUG\OPENGL_PROJECT_5_01.PCH" /Fo"DEBUG\\" /Fd"DEBUG\VC120.PDB" /Gd /TP /analyze- D:\ONEDRIVE\STUDIA\PROJEKTOWANIE WARSTWY WIZUALNEJ GRY\SZABLON\OPENGL_PROJECT_5_02\OPENGL_PROJECT_5_01\STDAFX.CPP
^D:\ONEDRIVE\STUDIA\PROJEKTOWANIE WARSTWY WIZUALNEJ GRY\SZABLON\OPENGL_PROJECT_5_02\OPENGL_PROJECT_5_01\ASSIMPMODEL.CPP
/c /ZI /nologo /W3 /WX- /Od /Oy- /D WIN32 /D _DEBUG /D _CONSOLE /D _LIB /D _UNICODE /D UNICODE /Gm /EHsc /RTC1 /MDd /GS /fp:precise /Zc:wchar_t /Zc:forScope /Yu"stdafx.h" /Fp"DEBUG\OPENGL_PROJECT_5_01.PCH" /Fo"DEBUG\\" /Fd"DEBUG\VC120.PDB" /Gd /TP /analyze- D:\ONEDRIVE\STUDIA\PROJEKTOWANIE WARSTWY WIZUALNEJ GRY\SZABLON\OPENGL_PROJECT_5_02\OPENGL_PROJECT_5_01\ASSIMPMODEL.CPP
^D:\ONEDRIVE\STUDIA\PROJEKTOWANIE WARSTWY WIZUALNEJ GRY\SZABLON\OPENGL_PROJECT_5_02\OPENGL_PROJECT_5_01\SYSTEM\CAMERA.CPP
/c /ZI /nologo /W3 /WX- /Od /Oy- /D WIN32 /D _DEBUG /D _CONSOLE /D _LIB /D _UNICODE /D UNICODE /Gm /EHsc /RTC1 /MDd /GS /fp:precise /Zc:wchar_t /Zc:forScope /Yu"stdafx.h" /Fp"DEBUG\OPENGL_PROJECT_5_01.PCH" /Fo"DEBUG\\" /Fd"DEBUG\VC120.PDB" /Gd /TP /analyze- D:\ONEDRIVE\STUDIA\PROJEKTOWANIE WARSTWY WIZUALNEJ GRY\SZABLON\OPENGL_PROJECT_5_02\OPENGL_PROJECT_5_01\SYSTEM\CAMERA.CPP
^D:\ONEDRIVE\STUDIA\PROJEKTOWANIE WARSTWY WIZUALNEJ GRY\SZABLON\OPENGL_PROJECT_5_02\OPENGL_PROJECT_5_01\SYSTEM\EVENT.CPP
/c /ZI /nologo /W3 /WX- /Od /Oy- /D WIN32 /D _DEBUG /D _CONSOLE /D _LIB /D _UNICODE /D UNICODE /Gm /EHsc /RTC1 /MDd /GS /fp:precise /Zc:wchar_t /Zc:forScope /Yu"stdafx.h" /Fp"DEBUG\OPENGL_PROJECT_5_01.PCH" /Fo"DEBUG\\" /Fd"DEBUG\VC120.PDB" /Gd /TP /analyze- D:\ONEDRIVE\STUDIA\PROJEKTOWANIE WARSTWY WIZUALNEJ GRY\SZABLON\OPENGL_PROJECT_5_02\OPENGL_PROJECT_5_01\SYSTEM\EVENT.CPP
^D:\ONEDRIVE\STUDIA\PROJEKTOWANIE WARSTWY WIZUALNEJ GRY\SZABLON\OPENGL_PROJECT_5_02\OPENGL_PROJECT_5_01\MESH.CPP
/c /ZI /nologo /W3 /WX- /Od /Oy- /D WIN32 /D _DEBUG /D _CONSOLE /D _LIB /D _UNICODE /D UNICODE /Gm /EHsc /RTC1 /MDd /GS /fp:precise /Zc:wchar_t /Zc:forScope /Yu"stdafx.h" /Fp"DEBUG\OPENGL_PROJECT_5_01.PCH" /Fo"DEBUG\\" /Fd"DEBUG\VC120.PDB" /Gd /TP /analyze- D:\ONEDRIVE\STUDIA\PROJEKTOWANIE WARSTWY WIZUALNEJ GRY\SZABLON\OPENGL_PROJECT_5_02\OPENGL_PROJECT_5_01\MESH.CPP
^D:\ONEDRIVE\STUDIA\PROJEKTOWANIE WARSTWY WIZUALNEJ GRY\SZABLON\OPENGL_PROJECT_5_02\OPENGL_PROJECT_5_01\SHADER.CPP
/c /ZI /nologo /W3 /WX- /Od /Oy- /D WIN32 /D _DEBUG /D _CONSOLE /D _LIB /D _UNICODE /D UNICODE /Gm /EHsc /RTC1 /MDd /GS /fp:precise /Zc:wchar_t /Zc:forScope /Yu"stdafx.h" /Fp"DEBUG\OPENGL_PROJECT_5_01.PCH" /Fo"DEBUG\\" /Fd"DEBUG\VC120.PDB" /Gd /TP /analyze- D:\ONEDRIVE\STUDIA\PROJEKTOWANIE WARSTWY WIZUALNEJ GRY\SZABLON\OPENGL_PROJECT_5_02\OPENGL_PROJECT_5_01\SHADER.CPP
^D:\ONEDRIVE\STUDIA\PROJEKTOWANIE WARSTWY WIZUALNEJ GRY\SZABLON\OPENGL_PROJECT_5_02\OPENGL_PROJECT_5_01\GL3W.C
/c /ZI /nologo /W3 /WX- /Od /Oy- /D WIN32 /D _DEBUG /D _CONSOLE /D _LIB /D _UNICODE /D UNICODE /Gm /EHsc /RTC1 /MDd /GS /fp:precise /Zc:wchar_t /Zc:forScope /Fo"DEBUG\\" /Fd"DEBUG\VC120.PDB" /Gd /TC /analyze- D:\ONEDRIVE\STUDIA\PROJEKTOWANIE WARSTWY WIZUALNEJ GRY\SZABLON\OPENGL_PROJECT_5_02\OPENGL_PROJECT_5_01\GL3W.C
^D:\ONEDRIVE\STUDIA\PROJEKTOWANIE WARSTWY WIZUALNEJ GRY\SZABLON\OPENGL_PROJECT_5_02\OPENGL_PROJECT_5_01\MAIN.CPP
/c /ZI /nologo /W3 /WX- /Od /Oy- /D WIN32 /D _DEBUG /D _CONSOLE /D _LIB /D _UNICODE /D UNICODE /Gm /EHsc /RTC1 /MDd /GS /fp:precise /Zc:wchar_t /Zc:forScope /Fo"DEBUG\\" /Fd"DEBUG\VC120.PDB" /Gd /TP /analyze- D:\ONEDRIVE\STUDIA\PROJEKTOWANIE WARSTWY WIZUALNEJ GRY\SZABLON\OPENGL_PROJECT_5_02\OPENGL_PROJECT_5_01\MAIN.CPP
^D:\ONEDRIVE\STUDIA\PROJEKTOWANIE WARSTWY WIZUALNEJ GRY\SZABLON\OPENGL_PROJECT_5_02\OPENGL_PROJECT_5_01\MATERIALS.CPP
/c /ZI /nologo /W3 /WX- /Od /Oy- /D WIN32 /D _DEBUG /D _CONSOLE /D _LIB /D _UNICODE /D UNICODE /Gm /EHsc /RTC1 /MDd /GS /fp:precise /Zc:wchar_t /Zc:forScope /Fo"DEBUG\\" /Fd"DEBUG\VC120.PDB" /Gd /TP /analyze- D:\ONEDRIVE\STUDIA\PROJEKTOWANIE WARSTWY WIZUALNEJ GRY\SZABLON\OPENGL_PROJECT_5_02\OPENGL_PROJECT_5_01\MATERIALS.CPP
^D:\ONEDRIVE\STUDIA\PROJEKTOWANIE WARSTWY WIZUALNEJ GRY\SZABLON\OPENGL_PROJECT_5_02\OPENGL_PROJECT_5_01\INCLUDE\GL3W.C
/c /ZI /nologo /W3 /WX- /Od /Oy- /D WIN32 /D _DEBUG /D _CONSOLE /D _LIB /D _UNICODE /D UNICODE /Gm /EHsc /RTC1 /MDd /GS /fp:precise /Zc:wchar_t /Zc:forScope /Fo"DEBUG\\" /Fd"DEBUG\VC120.PDB" /Gd /TC /analyze- D:\ONEDRIVE\STUDIA\PROJEKTOWANIE WARSTWY WIZUALNEJ GRY\SZABLON\OPENGL_PROJECT_5_02\OPENGL_PROJECT_5_01\INCLUDE\GL3W.C
^D:\ONEDRIVE\STUDIA\PROJEKTOWANIE WARSTWY WIZUALNEJ GRY\SZABLON\OPENGL_PROJECT_5_02\OPENGL_PROJECT_5_01\SYSTEM\SHADER.CPP
/c /ZI /nologo /W3 /WX- /Od /Oy- /D WIN32 /D _DEBUG /D _CONSOLE /D _LIB /D _UNICODE /D UNICODE /Gm /EHsc /RTC1 /MDd /GS /fp:precise /Zc:wchar_t /Zc:forScope /Yu"stdafx.h" /Fp"DEBUG\OPENGL_PROJECT_5_01.PCH" /Fo"DEBUG\\" /Fd"DEBUG\VC120.PDB" /Gd /TP /analyze- D:\ONEDRIVE\STUDIA\PROJEKTOWANIE WARSTWY WIZUALNEJ GRY\SZABLON\OPENGL_PROJECT_5_02\OPENGL_PROJECT_5_01\SYSTEM\SHADER.CPP
^D:\ONEDRIVE\STUDIA\PROJEKTOWANIE WARSTWY WIZUALNEJ GRY\SZABLON\OPENGL_PROJECT_5_02\OPENGL_PROJECT_5_01\SYSTEM\MATERIALS.CPP
/c /ZI /nologo /W3 /WX- /Od /Oy- /D WIN32 /D _DEBUG /D _CONSOLE /D _LIB /D _UNICODE /D UNICODE /Gm /EHsc /RTC1 /MDd /GS /fp:precise /Zc:wchar_t /Zc:forScope /Fo"DEBUG\\" /Fd"DEBUG\VC120.PDB" /Gd /TP /analyze- D:\ONEDRIVE\STUDIA\PROJEKTOWANIE WARSTWY WIZUALNEJ GRY\SZABLON\OPENGL_PROJECT_5_02\OPENGL_PROJECT_5_01\SYSTEM\MATERIALS.CPP
^D:\ONEDRIVE\STUDIA\PROJEKTOWANIE WARSTWY WIZUALNEJ GRY\ZADANIA\ZESTAW 4\ZADANIE 1\OPENGL_PROJECT_5_01\STDAFX.CPP
/c /ZI /nologo /W3 /WX- /Od /Oy- /D WIN32 /D _DEBUG /D _CONSOLE /D _LIB /D _UNICODE /D UNICODE /Gm /EHsc /RTC1 /MDd /GS /fp:precise /Zc:wchar_t /Zc:forScope /Yc"stdafx.h" /Fp"DEBUG\OPENGL_PROJECT_5_01.PCH" /Fo"DEBUG\\" /Fd"DEBUG\VC120.PDB" /Gd /TP /analyze- D:\ONEDRIVE\STUDIA\PROJEKTOWANIE WARSTWY WIZUALNEJ GRY\ZADANIA\ZESTAW 4\ZADANIE 1\OPENGL_PROJECT_5_01\STDAFX.CPP
^D:\ONEDRIVE\STUDIA\PROJEKTOWANIE WARSTWY WIZUALNEJ GRY\ZADANIA\ZESTAW 4\ZADANIE 1\OPENGL_PROJECT_5_01\ASSIMPMODEL.CPP
/c /ZI /nologo /W3 /WX- /Od /Oy- /D WIN32 /D _DEBUG /D _CONSOLE /D _LIB /D _UNICODE /D UNICODE /Gm /EHsc /RTC1 /MDd /GS /fp:precise /Zc:wchar_t /Zc:forScope /Yu"stdafx.h" /Fp"DEBUG\OPENGL_PROJECT_5_01.PCH" /Fo"DEBUG\\" /Fd"DEBUG\VC120.PDB" /Gd /TP /analyze- D:\ONEDRIVE\STUDIA\PROJEKTOWANIE WARSTWY WIZUALNEJ GRY\ZADANIA\ZESTAW 4\ZADANIE 1\OPENGL_PROJECT_5_01\ASSIMPMODEL.CPP
^D:\ONEDRIVE\STUDIA\PROJEKTOWANIE WARSTWY WIZUALNEJ GRY\ZADANIA\ZESTAW 4\ZADANIE 1\OPENGL_PROJECT_5_01\SYSTEM\CAMERA.CPP
/c /ZI /nologo /W3 /WX- /Od /Oy- /D WIN32 /D _DEBUG /D _CONSOLE /D _LIB /D _UNICODE /D UNICODE /Gm /EHsc /RTC1 /MDd /GS /fp:precise /Zc:wchar_t /Zc:forScope /Yu"stdafx.h" /Fp"DEBUG\OPENGL_PROJECT_5_01.PCH" /Fo"DEBUG\\" /Fd"DEBUG\VC120.PDB" /Gd /TP /analyze- D:\ONEDRIVE\STUDIA\PROJEKTOWANIE WARSTWY WIZUALNEJ GRY\ZADANIA\ZESTAW 4\ZADANIE 1\OPENGL_PROJECT_5_01\SYSTEM\CAMERA.CPP
^D:\ONEDRIVE\STUDIA\PROJEKTOWANIE WARSTWY WIZUALNEJ GRY\ZADANIA\ZESTAW 4\ZADANIE 1\OPENGL_PROJECT_5_01\SYSTEM\EVENT.CPP
/c /ZI /nologo /W3 /WX- /Od /Oy- /D WIN32 /D _DEBUG /D _CONSOLE /D _LIB /D _UNICODE /D UNICODE /Gm /EHsc /RTC1 /MDd /GS /fp:precise /Zc:wchar_t /Zc:forScope /Yu"stdafx.h" /Fp"DEBUG\OPENGL_PROJECT_5_01.PCH" /Fo"DEBUG\\" /Fd"DEBUG\VC120.PDB" /Gd /TP /analyze- D:\ONEDRIVE\STUDIA\PROJEKTOWANIE WARSTWY WIZUALNEJ GRY\ZADANIA\ZESTAW 4\ZADANIE 1\OPENGL_PROJECT_5_01\SYSTEM\EVENT.CPP
^D:\ONEDRIVE\STUDIA\PROJEKTOWANIE WARSTWY WIZUALNEJ GRY\ZADANIA\ZESTAW 4\ZADANIE 1\OPENGL_PROJECT_5_01\MESH.CPP
/c /ZI /nologo /W3 /WX- /Od /Oy- /D WIN32 /D _DEBUG /D _CONSOLE /D _LIB /D _UNICODE /D UNICODE /Gm /EHsc /RTC1 /MDd /GS /fp:precise /Zc:wchar_t /Zc:forScope /Yu"stdafx.h" /Fp"DEBUG\OPENGL_PROJECT_5_01.PCH" /Fo"DEBUG\\" /Fd"DEBUG\VC120.PDB" /Gd /TP /analyze- D:\ONEDRIVE\STUDIA\PROJEKTOWANIE WARSTWY WIZUALNEJ GRY\ZADANIA\ZESTAW 4\ZADANIE 1\OPENGL_PROJECT_5_01\MESH.CPP
^D:\ONEDRIVE\STUDIA\PROJEKTOWANIE WARSTWY WIZUALNEJ GRY\ZADANIA\ZESTAW 4\ZADANIE 1\OPENGL_PROJECT_5_01\SYSTEM\SHADER.CPP
/c /ZI /nologo /W3 /WX- /Od /Oy- /D WIN32 /D _DEBUG /D _CONSOLE /D _LIB /D _UNICODE /D UNICODE /Gm /EHsc /RTC1 /MDd /GS /fp:precise /Zc:wchar_t /Zc:forScope /Yu"stdafx.h" /Fp"DEBUG\OPENGL_PROJECT_5_01.PCH" /Fo"DEBUG\\" /Fd"DEBUG\VC120.PDB" /Gd /TP /analyze- D:\ONEDRIVE\STUDIA\PROJEKTOWANIE WARSTWY WIZUALNEJ GRY\ZADANIA\ZESTAW 4\ZADANIE 1\OPENGL_PROJECT_5_01\SYSTEM\SHADER.CPP
^D:\ONEDRIVE\STUDIA\PROJEKTOWANIE WARSTWY WIZUALNEJ GRY\ZADANIA\ZESTAW 4\ZADANIE 1\OPENGL_PROJECT_5_01\INCLUDE\GL3W.C
/c /ZI /nologo /W3 /WX- /Od /Oy- /D WIN32 /D _DEBUG /D _CONSOLE /D _LIB /D _UNICODE /D UNICODE /Gm /EHsc /RTC1 /MDd /GS /fp:precise /Zc:wchar_t /Zc:forScope /Fo"DEBUG\\" /Fd"DEBUG\VC120.PDB" /Gd /TC /analyze- D:\ONEDRIVE\STUDIA\PROJEKTOWANIE WARSTWY WIZUALNEJ GRY\ZADANIA\ZESTAW 4\ZADANIE 1\OPENGL_PROJECT_5_01\INCLUDE\GL3W.C
^D:\ONEDRIVE\STUDIA\PROJEKTOWANIE WARSTWY WIZUALNEJ GRY\ZADANIA\ZESTAW 4\ZADANIE 1\OPENGL_PROJECT_5_01\MAIN.CPP
/c /ZI /nologo /W3 /WX- /Od /Oy- /D WIN32 /D _DEBUG /D _CONSOLE /D _LIB /D _UNICODE /D UNICODE /Gm /EHsc /RTC1 /MDd /GS /fp:precise /Zc:wchar_t /Zc:forScope /Fo"DEBUG\\" /Fd"DEBUG\VC120.PDB" /Gd /TP /analyze- D:\ONEDRIVE\STUDIA\PROJEKTOWANIE WARSTWY WIZUALNEJ GRY\ZADANIA\ZESTAW 4\ZADANIE 1\OPENGL_PROJECT_5_01\MAIN.CPP
^D:\ONEDRIVE\STUDIA\PROJEKTOWANIE WARSTWY WIZUALNEJ GRY\ZADANIA\ZESTAW 4\ZADANIE 1\OPENGL_PROJECT_5_01\SYSTEM\MATERIALS.CPP
/c /ZI /nologo /W3 /WX- /Od /Oy- /D WIN32 /D _DEBUG /D _CONSOLE /D _LIB /D _UNICODE /D UNICODE /Gm /EHsc /RTC1 /MDd /GS /fp:precise /Zc:wchar_t /Zc:forScope /Fo"DEBUG\\" /Fd"DEBUG\VC120.PDB" /Gd /TP /analyze- D:\ONEDRIVE\STUDIA\PROJEKTOWANIE WARSTWY WIZUALNEJ GRY\ZADANIA\ZESTAW 4\ZADANIE 1\OPENGL_PROJECT_5_01\SYSTEM\MATERIALS.CPP
