^D:\ONEDRIVE\STUDIA\PROJEKTOWANIE WARSTWY WIZUALNEJ GRY\SZABLON\OPENGL_PROJECT_5_02\OPENGL_PROJECT_5_01\STDAFX.CPP
D:\ONEDRIVE\STUDIA\PROJEKTOWANIE WARSTWY WIZUALNEJ GRY\SZABLON\OPENGL_PROJECT_5_02\OPENGL_PROJECT_5_01\DEBUG\OPENGL_PROJECT_5_01.PCH
D:\ONEDRIVE\STUDIA\PROJEKTOWANIE WARSTWY WIZUALNEJ GRY\SZABLON\OPENGL_PROJECT_5_02\OPENGL_PROJECT_5_01\DEBUG\VC120.PDB
D:\ONEDRIVE\STUDIA\PROJEKTOWANIE WARSTWY WIZUALNEJ GRY\SZABLON\OPENGL_PROJECT_5_02\OPENGL_PROJECT_5_01\DEBUG\VC120.IDB
D:\ONEDRIVE\STUDIA\PROJEKTOWANIE WARSTWY WIZUALNEJ GRY\SZABLON\OPENGL_PROJECT_5_02\OPENGL_PROJECT_5_01\DEBUG\STDAFX.OBJ
^D:\ONEDRIVE\STUDIA\PROJEKTOWANIE WARSTWY WIZUALNEJ GRY\SZABLON\OPENGL_PROJECT_5_02\OPENGL_PROJECT_5_01\ASSIMPMODEL.CPP|D:\ONEDRIVE\STUDIA\PROJEKTOWANIE WARSTWY WIZUALNEJ GRY\SZABLON\OPENGL_PROJECT_5_02\OPENGL_PROJECT_5_01\MESH.CPP|D:\ONEDRIVE\STUDIA\PROJEKTOWANIE WARSTWY WIZUALNEJ GRY\SZABLON\OPENGL_PROJECT_5_02\OPENGL_PROJECT_5_01\SHADER.CPP|D:\ONEDRIVE\STUDIA\PROJEKTOWANIE WARSTWY WIZUALNEJ GRY\SZABLON\OPENGL_PROJECT_5_02\OPENGL_PROJECT_5_01\SYSTEM\CAMERA.CPP|D:\ONEDRIVE\STUDIA\PROJEKTOWANIE WARSTWY WIZUALNEJ GRY\SZABLON\OPENGL_PROJECT_5_02\OPENGL_PROJECT_5_01\SYSTEM\EVENT.CPP
D:\ONEDRIVE\STUDIA\PROJEKTOWANIE WARSTWY WIZUALNEJ GRY\SZABLON\OPENGL_PROJECT_5_02\OPENGL_PROJECT_5_01\DEBUG\VC120.PDB
D:\ONEDRIVE\STUDIA\PROJEKTOWANIE WARSTWY WIZUALNEJ GRY\SZABLON\OPENGL_PROJECT_5_02\OPENGL_PROJECT_5_01\DEBUG\VC120.IDB
D:\ONEDRIVE\STUDIA\PROJEKTOWANIE WARSTWY WIZUALNEJ GRY\SZABLON\OPENGL_PROJECT_5_02\OPENGL_PROJECT_5_01\DEBUG\ASSIMPMODEL.OBJ
D:\ONEDRIVE\STUDIA\PROJEKTOWANIE WARSTWY WIZUALNEJ GRY\SZABLON\OPENGL_PROJECT_5_02\OPENGL_PROJECT_5_01\DEBUG\CAMERA.OBJ
D:\ONEDRIVE\STUDIA\PROJEKTOWANIE WARSTWY WIZUALNEJ GRY\SZABLON\OPENGL_PROJECT_5_02\OPENGL_PROJECT_5_01\DEBUG\EVENT.OBJ
D:\ONEDRIVE\STUDIA\PROJEKTOWANIE WARSTWY WIZUALNEJ GRY\SZABLON\OPENGL_PROJECT_5_02\OPENGL_PROJECT_5_01\DEBUG\MESH.OBJ
D:\ONEDRIVE\STUDIA\PROJEKTOWANIE WARSTWY WIZUALNEJ GRY\SZABLON\OPENGL_PROJECT_5_02\OPENGL_PROJECT_5_01\DEBUG\SHADER.OBJ
^D:\ONEDRIVE\STUDIA\PROJEKTOWANIE WARSTWY WIZUALNEJ GRY\SZABLON\OPENGL_PROJECT_5_02\OPENGL_PROJECT_5_01\ASSIMPMODEL.CPP
D:\ONEDRIVE\STUDIA\PROJEKTOWANIE WARSTWY WIZUALNEJ GRY\SZABLON\OPENGL_PROJECT_5_02\OPENGL_PROJECT_5_01\DEBUG\VC120.PDB
D:\ONEDRIVE\STUDIA\PROJEKTOWANIE WARSTWY WIZUALNEJ GRY\SZABLON\OPENGL_PROJECT_5_02\OPENGL_PROJECT_5_01\DEBUG\VC120.IDB
D:\ONEDRIVE\STUDIA\PROJEKTOWANIE WARSTWY WIZUALNEJ GRY\SZABLON\OPENGL_PROJECT_5_02\OPENGL_PROJECT_5_01\DEBUG\ASSIMPMODEL.OBJ
^D:\ONEDRIVE\STUDIA\PROJEKTOWANIE WARSTWY WIZUALNEJ GRY\SZABLON\OPENGL_PROJECT_5_02\OPENGL_PROJECT_5_01\SYSTEM\CAMERA.CPP
D:\ONEDRIVE\STUDIA\PROJEKTOWANIE WARSTWY WIZUALNEJ GRY\SZABLON\OPENGL_PROJECT_5_02\OPENGL_PROJECT_5_01\DEBUG\VC120.PDB
D:\ONEDRIVE\STUDIA\PROJEKTOWANIE WARSTWY WIZUALNEJ GRY\SZABLON\OPENGL_PROJECT_5_02\OPENGL_PROJECT_5_01\DEBUG\VC120.IDB
D:\ONEDRIVE\STUDIA\PROJEKTOWANIE WARSTWY WIZUALNEJ GRY\SZABLON\OPENGL_PROJECT_5_02\OPENGL_PROJECT_5_01\DEBUG\CAMERA.OBJ
^D:\ONEDRIVE\STUDIA\PROJEKTOWANIE WARSTWY WIZUALNEJ GRY\SZABLON\OPENGL_PROJECT_5_02\OPENGL_PROJECT_5_01\SYSTEM\EVENT.CPP
D:\ONEDRIVE\STUDIA\PROJEKTOWANIE WARSTWY WIZUALNEJ GRY\SZABLON\OPENGL_PROJECT_5_02\OPENGL_PROJECT_5_01\DEBUG\VC120.PDB
D:\ONEDRIVE\STUDIA\PROJEKTOWANIE WARSTWY WIZUALNEJ GRY\SZABLON\OPENGL_PROJECT_5_02\OPENGL_PROJECT_5_01\DEBUG\VC120.IDB
D:\ONEDRIVE\STUDIA\PROJEKTOWANIE WARSTWY WIZUALNEJ GRY\SZABLON\OPENGL_PROJECT_5_02\OPENGL_PROJECT_5_01\DEBUG\EVENT.OBJ
^D:\ONEDRIVE\STUDIA\PROJEKTOWANIE WARSTWY WIZUALNEJ GRY\SZABLON\OPENGL_PROJECT_5_02\OPENGL_PROJECT_5_01\MESH.CPP
D:\ONEDRIVE\STUDIA\PROJEKTOWANIE WARSTWY WIZUALNEJ GRY\SZABLON\OPENGL_PROJECT_5_02\OPENGL_PROJECT_5_01\DEBUG\VC120.PDB
D:\ONEDRIVE\STUDIA\PROJEKTOWANIE WARSTWY WIZUALNEJ GRY\SZABLON\OPENGL_PROJECT_5_02\OPENGL_PROJECT_5_01\DEBUG\VC120.IDB
D:\ONEDRIVE\STUDIA\PROJEKTOWANIE WARSTWY WIZUALNEJ GRY\SZABLON\OPENGL_PROJECT_5_02\OPENGL_PROJECT_5_01\DEBUG\MESH.OBJ
^D:\ONEDRIVE\STUDIA\PROJEKTOWANIE WARSTWY WIZUALNEJ GRY\SZABLON\OPENGL_PROJECT_5_02\OPENGL_PROJECT_5_01\SHADER.CPP
D:\ONEDRIVE\STUDIA\PROJEKTOWANIE WARSTWY WIZUALNEJ GRY\SZABLON\OPENGL_PROJECT_5_02\OPENGL_PROJECT_5_01\DEBUG\VC120.PDB
^D:\ONEDRIVE\STUDIA\PROJEKTOWANIE WARSTWY WIZUALNEJ GRY\SZABLON\OPENGL_PROJECT_5_02\OPENGL_PROJECT_5_01\GL3W.C
D:\ONEDRIVE\STUDIA\PROJEKTOWANIE WARSTWY WIZUALNEJ GRY\SZABLON\OPENGL_PROJECT_5_02\OPENGL_PROJECT_5_01\DEBUG\VC120.PDB
D:\ONEDRIVE\STUDIA\PROJEKTOWANIE WARSTWY WIZUALNEJ GRY\SZABLON\OPENGL_PROJECT_5_02\OPENGL_PROJECT_5_01\DEBUG\VC120.IDB
D:\ONEDRIVE\STUDIA\PROJEKTOWANIE WARSTWY WIZUALNEJ GRY\SZABLON\OPENGL_PROJECT_5_02\OPENGL_PROJECT_5_01\DEBUG\GL3W.OBJ
^D:\ONEDRIVE\STUDIA\PROJEKTOWANIE WARSTWY WIZUALNEJ GRY\SZABLON\OPENGL_PROJECT_5_02\OPENGL_PROJECT_5_01\MAIN.CPP|D:\ONEDRIVE\STUDIA\PROJEKTOWANIE WARSTWY WIZUALNEJ GRY\SZABLON\OPENGL_PROJECT_5_02\OPENGL_PROJECT_5_01\MATERIALS.CPP
D:\ONEDRIVE\STUDIA\PROJEKTOWANIE WARSTWY WIZUALNEJ GRY\SZABLON\OPENGL_PROJECT_5_02\OPENGL_PROJECT_5_01\DEBUG\VC120.PDB
D:\ONEDRIVE\STUDIA\PROJEKTOWANIE WARSTWY WIZUALNEJ GRY\SZABLON\OPENGL_PROJECT_5_02\OPENGL_PROJECT_5_01\DEBUG\VC120.IDB
D:\ONEDRIVE\STUDIA\PROJEKTOWANIE WARSTWY WIZUALNEJ GRY\SZABLON\OPENGL_PROJECT_5_02\OPENGL_PROJECT_5_01\DEBUG\MAIN.OBJ
D:\ONEDRIVE\STUDIA\PROJEKTOWANIE WARSTWY WIZUALNEJ GRY\SZABLON\OPENGL_PROJECT_5_02\OPENGL_PROJECT_5_01\DEBUG\MATERIALS.OBJ
^D:\ONEDRIVE\STUDIA\PROJEKTOWANIE WARSTWY WIZUALNEJ GRY\SZABLON\OPENGL_PROJECT_5_02\OPENGL_PROJECT_5_01\MAIN.CPP
D:\ONEDRIVE\STUDIA\PROJEKTOWANIE WARSTWY WIZUALNEJ GRY\SZABLON\OPENGL_PROJECT_5_02\OPENGL_PROJECT_5_01\DEBUG\VC120.PDB
D:\ONEDRIVE\STUDIA\PROJEKTOWANIE WARSTWY WIZUALNEJ GRY\SZABLON\OPENGL_PROJECT_5_02\OPENGL_PROJECT_5_01\DEBUG\VC120.IDB
D:\ONEDRIVE\STUDIA\PROJEKTOWANIE WARSTWY WIZUALNEJ GRY\SZABLON\OPENGL_PROJECT_5_02\OPENGL_PROJECT_5_01\DEBUG\MAIN.OBJ
^D:\ONEDRIVE\STUDIA\PROJEKTOWANIE WARSTWY WIZUALNEJ GRY\SZABLON\OPENGL_PROJECT_5_02\OPENGL_PROJECT_5_01\MATERIALS.CPP
D:\ONEDRIVE\STUDIA\PROJEKTOWANIE WARSTWY WIZUALNEJ GRY\SZABLON\OPENGL_PROJECT_5_02\OPENGL_PROJECT_5_01\DEBUG\VC120.PDB
^D:\ONEDRIVE\STUDIA\PROJEKTOWANIE WARSTWY WIZUALNEJ GRY\SZABLON\OPENGL_PROJECT_5_02\OPENGL_PROJECT_5_01\SYSTEM\CAMERA.CPP|D:\ONEDRIVE\STUDIA\PROJEKTOWANIE WARSTWY WIZUALNEJ GRY\SZABLON\OPENGL_PROJECT_5_02\OPENGL_PROJECT_5_01\SYSTEM\EVENT.CPP
D:\ONEDRIVE\STUDIA\PROJEKTOWANIE WARSTWY WIZUALNEJ GRY\SZABLON\OPENGL_PROJECT_5_02\OPENGL_PROJECT_5_01\DEBUG\VC120.PDB
D:\ONEDRIVE\STUDIA\PROJEKTOWANIE WARSTWY WIZUALNEJ GRY\SZABLON\OPENGL_PROJECT_5_02\OPENGL_PROJECT_5_01\DEBUG\VC120.IDB
D:\ONEDRIVE\STUDIA\PROJEKTOWANIE WARSTWY WIZUALNEJ GRY\SZABLON\OPENGL_PROJECT_5_02\OPENGL_PROJECT_5_01\DEBUG\EVENT.OBJ
D:\ONEDRIVE\STUDIA\PROJEKTOWANIE WARSTWY WIZUALNEJ GRY\SZABLON\OPENGL_PROJECT_5_02\OPENGL_PROJECT_5_01\DEBUG\CAMERA.OBJ
^D:\ONEDRIVE\STUDIA\PROJEKTOWANIE WARSTWY WIZUALNEJ GRY\SZABLON\OPENGL_PROJECT_5_02\OPENGL_PROJECT_5_01\ASSIMPMODEL.CPP|D:\ONEDRIVE\STUDIA\PROJEKTOWANIE WARSTWY WIZUALNEJ GRY\SZABLON\OPENGL_PROJECT_5_02\OPENGL_PROJECT_5_01\MESH.CPP|D:\ONEDRIVE\STUDIA\PROJEKTOWANIE WARSTWY WIZUALNEJ GRY\SZABLON\OPENGL_PROJECT_5_02\OPENGL_PROJECT_5_01\SHADER.CPP
D:\ONEDRIVE\STUDIA\PROJEKTOWANIE WARSTWY WIZUALNEJ GRY\SZABLON\OPENGL_PROJECT_5_02\OPENGL_PROJECT_5_01\DEBUG\VC120.PDB
D:\ONEDRIVE\STUDIA\PROJEKTOWANIE WARSTWY WIZUALNEJ GRY\SZABLON\OPENGL_PROJECT_5_02\OPENGL_PROJECT_5_01\DEBUG\VC120.IDB
D:\ONEDRIVE\STUDIA\PROJEKTOWANIE WARSTWY WIZUALNEJ GRY\SZABLON\OPENGL_PROJECT_5_02\OPENGL_PROJECT_5_01\DEBUG\ASSIMPMODEL.OBJ
D:\ONEDRIVE\STUDIA\PROJEKTOWANIE WARSTWY WIZUALNEJ GRY\SZABLON\OPENGL_PROJECT_5_02\OPENGL_PROJECT_5_01\DEBUG\MESH.OBJ
D:\ONEDRIVE\STUDIA\PROJEKTOWANIE WARSTWY WIZUALNEJ GRY\SZABLON\OPENGL_PROJECT_5_02\OPENGL_PROJECT_5_01\DEBUG\SHADER.OBJ
^D:\ONEDRIVE\STUDIA\PROJEKTOWANIE WARSTWY WIZUALNEJ GRY\SZABLON\OPENGL_PROJECT_5_02\OPENGL_PROJECT_5_01\INCLUDE\GL3W.C
D:\ONEDRIVE\STUDIA\PROJEKTOWANIE WARSTWY WIZUALNEJ GRY\SZABLON\OPENGL_PROJECT_5_02\OPENGL_PROJECT_5_01\DEBUG\VC120.PDB
D:\ONEDRIVE\STUDIA\PROJEKTOWANIE WARSTWY WIZUALNEJ GRY\SZABLON\OPENGL_PROJECT_5_02\OPENGL_PROJECT_5_01\DEBUG\VC120.IDB
D:\ONEDRIVE\STUDIA\PROJEKTOWANIE WARSTWY WIZUALNEJ GRY\SZABLON\OPENGL_PROJECT_5_02\OPENGL_PROJECT_5_01\DEBUG\GL3W.OBJ
^D:\ONEDRIVE\STUDIA\PROJEKTOWANIE WARSTWY WIZUALNEJ GRY\SZABLON\OPENGL_PROJECT_5_02\OPENGL_PROJECT_5_01\MESH.CPP|D:\ONEDRIVE\STUDIA\PROJEKTOWANIE WARSTWY WIZUALNEJ GRY\SZABLON\OPENGL_PROJECT_5_02\OPENGL_PROJECT_5_01\SYSTEM\SHADER.CPP
D:\ONEDRIVE\STUDIA\PROJEKTOWANIE WARSTWY WIZUALNEJ GRY\SZABLON\OPENGL_PROJECT_5_02\OPENGL_PROJECT_5_01\DEBUG\VC120.PDB
D:\ONEDRIVE\STUDIA\PROJEKTOWANIE WARSTWY WIZUALNEJ GRY\SZABLON\OPENGL_PROJECT_5_02\OPENGL_PROJECT_5_01\DEBUG\VC120.IDB
D:\ONEDRIVE\STUDIA\PROJEKTOWANIE WARSTWY WIZUALNEJ GRY\SZABLON\OPENGL_PROJECT_5_02\OPENGL_PROJECT_5_01\DEBUG\SHADER.OBJ
^D:\ONEDRIVE\STUDIA\PROJEKTOWANIE WARSTWY WIZUALNEJ GRY\SZABLON\OPENGL_PROJECT_5_02\OPENGL_PROJECT_5_01\SYSTEM\SHADER.CPP
D:\ONEDRIVE\STUDIA\PROJEKTOWANIE WARSTWY WIZUALNEJ GRY\SZABLON\OPENGL_PROJECT_5_02\OPENGL_PROJECT_5_01\DEBUG\VC120.PDB
^D:\ONEDRIVE\STUDIA\PROJEKTOWANIE WARSTWY WIZUALNEJ GRY\SZABLON\OPENGL_PROJECT_5_02\OPENGL_PROJECT_5_01\SYSTEM\MATERIALS.CPP
D:\ONEDRIVE\STUDIA\PROJEKTOWANIE WARSTWY WIZUALNEJ GRY\SZABLON\OPENGL_PROJECT_5_02\OPENGL_PROJECT_5_01\DEBUG\VC120.PDB
D:\ONEDRIVE\STUDIA\PROJEKTOWANIE WARSTWY WIZUALNEJ GRY\SZABLON\OPENGL_PROJECT_5_02\OPENGL_PROJECT_5_01\DEBUG\VC120.IDB
D:\ONEDRIVE\STUDIA\PROJEKTOWANIE WARSTWY WIZUALNEJ GRY\SZABLON\OPENGL_PROJECT_5_02\OPENGL_PROJECT_5_01\DEBUG\MATERIALS.OBJ
^D:\ONEDRIVE\STUDIA\PROJEKTOWANIE WARSTWY WIZUALNEJ GRY\SZABLON\OPENGL_PROJECT_5_02\OPENGL_PROJECT_5_01\ASSIMPMODEL.CPP|D:\ONEDRIVE\STUDIA\PROJEKTOWANIE WARSTWY WIZUALNEJ GRY\SZABLON\OPENGL_PROJECT_5_02\OPENGL_PROJECT_5_01\SYSTEM\CAMERA.CPP
D:\ONEDRIVE\STUDIA\PROJEKTOWANIE WARSTWY WIZUALNEJ GRY\SZABLON\OPENGL_PROJECT_5_02\OPENGL_PROJECT_5_01\DEBUG\VC120.PDB
D:\ONEDRIVE\STUDIA\PROJEKTOWANIE WARSTWY WIZUALNEJ GRY\SZABLON\OPENGL_PROJECT_5_02\OPENGL_PROJECT_5_01\DEBUG\VC120.IDB
D:\ONEDRIVE\STUDIA\PROJEKTOWANIE WARSTWY WIZUALNEJ GRY\SZABLON\OPENGL_PROJECT_5_02\OPENGL_PROJECT_5_01\DEBUG\ASSIMPMODEL.OBJ
D:\ONEDRIVE\STUDIA\PROJEKTOWANIE WARSTWY WIZUALNEJ GRY\SZABLON\OPENGL_PROJECT_5_02\OPENGL_PROJECT_5_01\DEBUG\CAMERA.OBJ
^D:\ONEDRIVE\STUDIA\PROJEKTOWANIE WARSTWY WIZUALNEJ GRY\SZABLON\OPENGL_PROJECT_5_02\OPENGL_PROJECT_5_01\ASSIMPMODEL.CPP|D:\ONEDRIVE\STUDIA\PROJEKTOWANIE WARSTWY WIZUALNEJ GRY\SZABLON\OPENGL_PROJECT_5_02\OPENGL_PROJECT_5_01\MESH.CPP
D:\ONEDRIVE\STUDIA\PROJEKTOWANIE WARSTWY WIZUALNEJ GRY\SZABLON\OPENGL_PROJECT_5_02\OPENGL_PROJECT_5_01\DEBUG\VC120.PDB
D:\ONEDRIVE\STUDIA\PROJEKTOWANIE WARSTWY WIZUALNEJ GRY\SZABLON\OPENGL_PROJECT_5_02\OPENGL_PROJECT_5_01\DEBUG\VC120.IDB
D:\ONEDRIVE\STUDIA\PROJEKTOWANIE WARSTWY WIZUALNEJ GRY\SZABLON\OPENGL_PROJECT_5_02\OPENGL_PROJECT_5_01\DEBUG\ASSIMPMODEL.OBJ
^D:\ONEDRIVE\STUDIA\PROJEKTOWANIE WARSTWY WIZUALNEJ GRY\SZABLON\OPENGL_PROJECT_5_02\OPENGL_PROJECT_5_01\MESH.CPP|D:\ONEDRIVE\STUDIA\PROJEKTOWANIE WARSTWY WIZUALNEJ GRY\SZABLON\OPENGL_PROJECT_5_02\OPENGL_PROJECT_5_01\SYSTEM\CAMERA.CPP
D:\ONEDRIVE\STUDIA\PROJEKTOWANIE WARSTWY WIZUALNEJ GRY\SZABLON\OPENGL_PROJECT_5_02\OPENGL_PROJECT_5_01\DEBUG\VC120.PDB
D:\ONEDRIVE\STUDIA\PROJEKTOWANIE WARSTWY WIZUALNEJ GRY\SZABLON\OPENGL_PROJECT_5_02\OPENGL_PROJECT_5_01\DEBUG\VC120.IDB
D:\ONEDRIVE\STUDIA\PROJEKTOWANIE WARSTWY WIZUALNEJ GRY\SZABLON\OPENGL_PROJECT_5_02\OPENGL_PROJECT_5_01\DEBUG\MESH.OBJ
D:\ONEDRIVE\STUDIA\PROJEKTOWANIE WARSTWY WIZUALNEJ GRY\SZABLON\OPENGL_PROJECT_5_02\OPENGL_PROJECT_5_01\DEBUG\CAMERA.OBJ
^D:\ONEDRIVE\STUDIA\PROJEKTOWANIE WARSTWY WIZUALNEJ GRY\ZADANIA\ZESTAW 4\ZADANIE 1\OPENGL_PROJECT_5_01\STDAFX.CPP
D:\ONEDRIVE\STUDIA\PROJEKTOWANIE WARSTWY WIZUALNEJ GRY\ZADANIA\ZESTAW 4\ZADANIE 1\OPENGL_PROJECT_5_01\DEBUG\OPENGL_PROJECT_5_01.PCH
D:\ONEDRIVE\STUDIA\PROJEKTOWANIE WARSTWY WIZUALNEJ GRY\ZADANIA\ZESTAW 4\ZADANIE 1\OPENGL_PROJECT_5_01\DEBUG\VC120.PDB
D:\ONEDRIVE\STUDIA\PROJEKTOWANIE WARSTWY WIZUALNEJ GRY\ZADANIA\ZESTAW 4\ZADANIE 1\OPENGL_PROJECT_5_01\DEBUG\VC120.IDB
D:\ONEDRIVE\STUDIA\PROJEKTOWANIE WARSTWY WIZUALNEJ GRY\ZADANIA\ZESTAW 4\ZADANIE 1\OPENGL_PROJECT_5_01\DEBUG\STDAFX.OBJ
^D:\ONEDRIVE\STUDIA\PROJEKTOWANIE WARSTWY WIZUALNEJ GRY\ZADANIA\ZESTAW 4\ZADANIE 1\OPENGL_PROJECT_5_01\ASSIMPMODEL.CPP|D:\ONEDRIVE\STUDIA\PROJEKTOWANIE WARSTWY WIZUALNEJ GRY\ZADANIA\ZESTAW 4\ZADANIE 1\OPENGL_PROJECT_5_01\MESH.CPP|D:\ONEDRIVE\STUDIA\PROJEKTOWANIE WARSTWY WIZUALNEJ GRY\ZADANIA\ZESTAW 4\ZADANIE 1\OPENGL_PROJECT_5_01\SYSTEM\CAMERA.CPP|D:\ONEDRIVE\STUDIA\PROJEKTOWANIE WARSTWY WIZUALNEJ GRY\ZADANIA\ZESTAW 4\ZADANIE 1\OPENGL_PROJECT_5_01\SYSTEM\EVENT.CPP|D:\ONEDRIVE\STUDIA\PROJEKTOWANIE WARSTWY WIZUALNEJ GRY\ZADANIA\ZESTAW 4\ZADANIE 1\OPENGL_PROJECT_5_01\SYSTEM\SHADER.CPP
D:\ONEDRIVE\STUDIA\PROJEKTOWANIE WARSTWY WIZUALNEJ GRY\ZADANIA\ZESTAW 4\ZADANIE 1\OPENGL_PROJECT_5_01\DEBUG\VC120.PDB
D:\ONEDRIVE\STUDIA\PROJEKTOWANIE WARSTWY WIZUALNEJ GRY\ZADANIA\ZESTAW 4\ZADANIE 1\OPENGL_PROJECT_5_01\DEBUG\VC120.IDB
D:\ONEDRIVE\STUDIA\PROJEKTOWANIE WARSTWY WIZUALNEJ GRY\ZADANIA\ZESTAW 4\ZADANIE 1\OPENGL_PROJECT_5_01\DEBUG\ASSIMPMODEL.OBJ
D:\ONEDRIVE\STUDIA\PROJEKTOWANIE WARSTWY WIZUALNEJ GRY\ZADANIA\ZESTAW 4\ZADANIE 1\OPENGL_PROJECT_5_01\DEBUG\CAMERA.OBJ
D:\ONEDRIVE\STUDIA\PROJEKTOWANIE WARSTWY WIZUALNEJ GRY\ZADANIA\ZESTAW 4\ZADANIE 1\OPENGL_PROJECT_5_01\DEBUG\EVENT.OBJ
D:\ONEDRIVE\STUDIA\PROJEKTOWANIE WARSTWY WIZUALNEJ GRY\ZADANIA\ZESTAW 4\ZADANIE 1\OPENGL_PROJECT_5_01\DEBUG\MESH.OBJ
D:\ONEDRIVE\STUDIA\PROJEKTOWANIE WARSTWY WIZUALNEJ GRY\ZADANIA\ZESTAW 4\ZADANIE 1\OPENGL_PROJECT_5_01\DEBUG\SHADER.OBJ
^D:\ONEDRIVE\STUDIA\PROJEKTOWANIE WARSTWY WIZUALNEJ GRY\ZADANIA\ZESTAW 4\ZADANIE 1\OPENGL_PROJECT_5_01\ASSIMPMODEL.CPP
D:\ONEDRIVE\STUDIA\PROJEKTOWANIE WARSTWY WIZUALNEJ GRY\ZADANIA\ZESTAW 4\ZADANIE 1\OPENGL_PROJECT_5_01\DEBUG\VC120.PDB
D:\ONEDRIVE\STUDIA\PROJEKTOWANIE WARSTWY WIZUALNEJ GRY\ZADANIA\ZESTAW 4\ZADANIE 1\OPENGL_PROJECT_5_01\DEBUG\VC120.IDB
D:\ONEDRIVE\STUDIA\PROJEKTOWANIE WARSTWY WIZUALNEJ GRY\ZADANIA\ZESTAW 4\ZADANIE 1\OPENGL_PROJECT_5_01\DEBUG\ASSIMPMODEL.OBJ
^D:\ONEDRIVE\STUDIA\PROJEKTOWANIE WARSTWY WIZUALNEJ GRY\ZADANIA\ZESTAW 4\ZADANIE 1\OPENGL_PROJECT_5_01\SYSTEM\CAMERA.CPP
D:\ONEDRIVE\STUDIA\PROJEKTOWANIE WARSTWY WIZUALNEJ GRY\ZADANIA\ZESTAW 4\ZADANIE 1\OPENGL_PROJECT_5_01\DEBUG\VC120.PDB
^D:\ONEDRIVE\STUDIA\PROJEKTOWANIE WARSTWY WIZUALNEJ GRY\ZADANIA\ZESTAW 4\ZADANIE 1\OPENGL_PROJECT_5_01\SYSTEM\EVENT.CPP
D:\ONEDRIVE\STUDIA\PROJEKTOWANIE WARSTWY WIZUALNEJ GRY\ZADANIA\ZESTAW 4\ZADANIE 1\OPENGL_PROJECT_5_01\DEBUG\VC120.PDB
^D:\ONEDRIVE\STUDIA\PROJEKTOWANIE WARSTWY WIZUALNEJ GRY\ZADANIA\ZESTAW 4\ZADANIE 1\OPENGL_PROJECT_5_01\MESH.CPP
D:\ONEDRIVE\STUDIA\PROJEKTOWANIE WARSTWY WIZUALNEJ GRY\ZADANIA\ZESTAW 4\ZADANIE 1\OPENGL_PROJECT_5_01\DEBUG\VC120.PDB
^D:\ONEDRIVE\STUDIA\PROJEKTOWANIE WARSTWY WIZUALNEJ GRY\ZADANIA\ZESTAW 4\ZADANIE 1\OPENGL_PROJECT_5_01\SYSTEM\SHADER.CPP
D:\ONEDRIVE\STUDIA\PROJEKTOWANIE WARSTWY WIZUALNEJ GRY\ZADANIA\ZESTAW 4\ZADANIE 1\OPENGL_PROJECT_5_01\DEBUG\VC120.PDB
^D:\ONEDRIVE\STUDIA\PROJEKTOWANIE WARSTWY WIZUALNEJ GRY\ZADANIA\ZESTAW 4\ZADANIE 1\OPENGL_PROJECT_5_01\INCLUDE\GL3W.C
D:\ONEDRIVE\STUDIA\PROJEKTOWANIE WARSTWY WIZUALNEJ GRY\ZADANIA\ZESTAW 4\ZADANIE 1\OPENGL_PROJECT_5_01\DEBUG\VC120.PDB
D:\ONEDRIVE\STUDIA\PROJEKTOWANIE WARSTWY WIZUALNEJ GRY\ZADANIA\ZESTAW 4\ZADANIE 1\OPENGL_PROJECT_5_01\DEBUG\VC120.IDB
D:\ONEDRIVE\STUDIA\PROJEKTOWANIE WARSTWY WIZUALNEJ GRY\ZADANIA\ZESTAW 4\ZADANIE 1\OPENGL_PROJECT_5_01\DEBUG\GL3W.OBJ
^D:\ONEDRIVE\STUDIA\PROJEKTOWANIE WARSTWY WIZUALNEJ GRY\ZADANIA\ZESTAW 4\ZADANIE 1\OPENGL_PROJECT_5_01\MAIN.CPP|D:\ONEDRIVE\STUDIA\PROJEKTOWANIE WARSTWY WIZUALNEJ GRY\ZADANIA\ZESTAW 4\ZADANIE 1\OPENGL_PROJECT_5_01\SYSTEM\MATERIALS.CPP
D:\ONEDRIVE\STUDIA\PROJEKTOWANIE WARSTWY WIZUALNEJ GRY\ZADANIA\ZESTAW 4\ZADANIE 1\OPENGL_PROJECT_5_01\DEBUG\VC120.PDB
D:\ONEDRIVE\STUDIA\PROJEKTOWANIE WARSTWY WIZUALNEJ GRY\ZADANIA\ZESTAW 4\ZADANIE 1\OPENGL_PROJECT_5_01\DEBUG\VC120.IDB
D:\ONEDRIVE\STUDIA\PROJEKTOWANIE WARSTWY WIZUALNEJ GRY\ZADANIA\ZESTAW 4\ZADANIE 1\OPENGL_PROJECT_5_01\DEBUG\MAIN.OBJ
D:\ONEDRIVE\STUDIA\PROJEKTOWANIE WARSTWY WIZUALNEJ GRY\ZADANIA\ZESTAW 4\ZADANIE 1\OPENGL_PROJECT_5_01\DEBUG\MATERIALS.OBJ
^D:\ONEDRIVE\STUDIA\PROJEKTOWANIE WARSTWY WIZUALNEJ GRY\ZADANIA\ZESTAW 4\ZADANIE 1\OPENGL_PROJECT_5_01\MAIN.CPP
D:\ONEDRIVE\STUDIA\PROJEKTOWANIE WARSTWY WIZUALNEJ GRY\ZADANIA\ZESTAW 4\ZADANIE 1\OPENGL_PROJECT_5_01\DEBUG\VC120.PDB
D:\ONEDRIVE\STUDIA\PROJEKTOWANIE WARSTWY WIZUALNEJ GRY\ZADANIA\ZESTAW 4\ZADANIE 1\OPENGL_PROJECT_5_01\DEBUG\VC120.IDB
D:\ONEDRIVE\STUDIA\PROJEKTOWANIE WARSTWY WIZUALNEJ GRY\ZADANIA\ZESTAW 4\ZADANIE 1\OPENGL_PROJECT_5_01\DEBUG\MAIN.OBJ
^D:\ONEDRIVE\STUDIA\PROJEKTOWANIE WARSTWY WIZUALNEJ GRY\ZADANIA\ZESTAW 4\ZADANIE 1\OPENGL_PROJECT_5_01\SYSTEM\MATERIALS.CPP
D:\ONEDRIVE\STUDIA\PROJEKTOWANIE WARSTWY WIZUALNEJ GRY\ZADANIA\ZESTAW 4\ZADANIE 1\OPENGL_PROJECT_5_01\DEBUG\VC120.PDB
