^D:\ONEDRIVE\STUDIA\PROJEKTOWANIE WARSTWY WIZUALNEJ GRY\SZABLON\OPENGL_PROJECT_5_01\OPENGL_PROJECT_5_01\RELEASE\GL3W.OBJ|D:\ONEDRIVE\STUDIA\PROJEKTOWANIE WARSTWY WIZUALNEJ GRY\SZABLON\OPENGL_PROJECT_5_01\OPENGL_PROJECT_5_01\RELEASE\MAIN.OBJ|D:\ONEDRIVE\STUDIA\PROJEKTOWANIE WARSTWY WIZUALNEJ GRY\SZABLON\OPENGL_PROJECT_5_01\OPENGL_PROJECT_5_01\RELEASE\MESH.OBJ|D:\ONEDRIVE\STUDIA\PROJEKTOWANIE WARSTWY WIZUALNEJ GRY\SZABLON\OPENGL_PROJECT_5_01\OPENGL_PROJECT_5_01\RELEASE\SHADER.OBJ|D:\ONEDRIVE\STUDIA\PROJEKTOWANIE WARSTWY WIZUALNEJ GRY\SZABLON\OPENGL_PROJECT_5_01\OPENGL_PROJECT_5_01\RELEASE\STDAFX.OBJ
D:\ONEDRIVE\STUDIA\PROJEKTOWANIE WARSTWY WIZUALNEJ GRY\SZABLON\OPENGL_PROJECT_5_01\RELEASE\OPENGL_PROJECT_5_01.EXE
D:\ONEDRIVE\STUDIA\PROJEKTOWANIE WARSTWY WIZUALNEJ GRY\SZABLON\OPENGL_PROJECT_5_01\RELEASE\OPENGL_PROJECT_5_01.PDB
